{
    "mod_name": "GaSb",
    "type": "intervalley",
    "v_21": 86850999997.65068,
    "dv_21": 35339769230.90741,
    "a": 132379136652.96725,
    "dop_crit": 8.211835636594733e+25,
    "f0": 402435.5196793437,
    "zeta_dop": 0.348778840634841,
    "af": 0.43154594600053975
}