{
    "mod_name": "GaAs",
    "valley": "L",
    "l_scat_type": "temp",
    "li_scat_type": "caughey-thomas",
    "hc_scat_type": "sat",
    "force": "phi",
    "v_sat_type": "default",
    "bowing": "",
    "mu_l": [
        0.0377,
        0.0377,
        0.0377
    ],
    "gamma_l": -2.2,
    "mu_min": 0.0062,
    "c_ref": 4.09e+23,
    "alpha": 0.62,
    "gamma_1": -0.9,
    "gamma_2": -0.9,
    "gamma_3": 6.2,
    "gamma_4": 0,
    "alpha_2": 0.5,
    "c_ref_2": 0,
    "mu_hd": 0,
    "r": 0,
    "beta": 1.73,
    "f0": 400000.0,
    "v_sat": 92000.0,
    "a": 0.56,
    "zeta_v": 0,
    "mu_bow": 0,
    "v_sat_bow": 0,
    "v_sat_a1": 0,
    "v_sat_a2": 0,
    "mu_min_a1": 0,
    "mu_min_a2": 0,
    "mu_l_a1": 0,
    "mu_l_a2": 0
}