{
    "mod_name": "GaAs",
    "type": "intervalley",
    "force": "phi",
    "v_21": 1689083742960.6562,
    "dv_21": 5790000000.0,
    "b": 2000000.0,
    "a": 360000000000.0,
    "dop_crit": 7.86e+23,
    "f0": 300000.0,
    "zeta_dop": 0.46,
    "zeta_v": 2.0
}