{
    "mod_name": "GaSb",
    "valley": "L",
    "l_scat_type": "temp",
    "li_scat_type": "caughey-thomas",
    "hc_scat_type": "sat",
    "force": "phi",
    "v_sat_type": "default",
    "bowing": "",
    "mu_l": [
        0.223,
        0.223,
        0.223
    ],
    "gamma_l": -0.9,
    "mu_min": 0.0103,
    "c_ref": 1.43e+23,
    "alpha": 0.62,
    "gamma_1": 0,
    "gamma_2": 0,
    "gamma_3": 0.5,
    "gamma_4": 0,
    "alpha_2": 0,
    "c_ref_2": 0,
    "mu_hd": 0,
    "r": 0,
    "beta": 1.98,
    "f0": 0,
    "v_sat": 84000.0,
    "a": 0.41,
    "zeta_v": 0,
    "mu_bow": 0,
    "v_sat_bow": 0,
    "v_sat_a1": 0,
    "v_sat_a2": 0,
    "mu_min_a1": 0,
    "mu_min_a2": 0,
    "mu_l_a1": 0,
    "mu_l_a2": 0
}