{
    "mod_name": "GaSb",
    "type": "intervalley",
    "force": "phi",
    "v_21": 110000000000.0,
    "dv_21": 5330000000.0,
    "b": 2000000.0,
    "a": 640000000000.0,
    "dop_crit": 4.31e+19,
    "f0": 1900.0,
    "zeta_dop": 0.4681703273782917,
    "zeta_v": 0.48
}