&DOPING profile='const' low_xyz=0 upp_xyz=5e-06 d_con=1e+20/
&DOPING profile='const' low_xyz=5.001e-06 upp_xyz=1e-05 d_con=-3e+20/
/
/
&REGION_DEF reg_mat='SEMI' low_xyz=0 upp_xyz=1e-05 mod_name='Si'/
&REGION_DEF reg_mat='CONT' low_xyz=0 upp_xyz=0 mod_name='CONT' cont_name='A'/
&REGION_DEF reg_mat='CONT' low_xyz=1e-05 upp_xyz=1e-05 mod_name='CONT' cont_name='C'/
/
&SEMI mod_name='Si' materialA='' materialB='' bgn_model='classic' bgn_apparent=1 elec=1 elec2=0 hole=1 fermi=0 dim=3 eps=11.7 eps_c=0 bgap_gamhd=0.5 v_hd0=0.009 c_ref=1.3e+23 c_hd=0.5 bgn_alpha=0.00143 eoff=-0.562 eoff_c=0 temp0=300/
&BAND_DEF mod_name='Si' valley='x' band='cb' type='para' e0=0.58475 e0_c=0 deg=6 e0_alpha=0.000473 e0_beta=636 m_eff=0.36 m_eff_c=0 al=0/
&BAND_DEF mod_name='Si' valley='h' band='vb' type='para' e0=-0.58475 e0_c=0 deg=1 e0_alpha=0 e0_beta=0 m_eff=0.81 m_eff_c=0 al=0/
/
&TAU_E mod_name='Si' valley='x' tau_type='default' t0=1e-12 t1=-5.38e-13 c0=0 c1=0.0015 c2=-0.09 c3=0.17/
&MOB_DEF mod_name='Si' valley='X' l_scat_type='michaillatn' li_scat_type='reggiani' hc_scat_type='sat' v_sat_type='default' bowing='' mu_l=0.07 0.3  mu_cs=0.23 0.14  z_0=1e-09 0.09  beta_l=400 300  gamma_l=-2.4 mu_min_d=0.00685 c_ref_d=9.2e+22 alpha_d=0.75 mu_min_a=0.024 c_ref_a=9e+22 alpha_a=0.78 gamma_1=0 gamma_2=0 gamma_3=0 gamma_4=0 alpha_2=0 c_ref_2=0 mu_hd=0 r=0 beta=2 f0=0 v_sat=100000.0 a=0.26 zeta_v=0 v_sat_bow=0 v_sat_a1=0 v_sat_a2=0 mu_min_a1=0 mu_min_a2=0 mu_l_a1=0 mu_l_a2=0 force='phi'/
&MOB_DEF mod_name='Si' valley='H' l_scat_type='michaillatp' li_scat_type='reggiani' hc_scat_type='sat' v_sat_type='default' bowing='' mu_l=0.051000000000000004 0.051000000000000004  z_0=0.0015 0.001  gamma_l=-2.2 mu_min_a=0.004200000000000001 mu_min_d=0.010400000000000001 c_ref_a=3e+23 c_ref_d=3e+23 alpha_a=0.7 alpha_d=0.7 gamma_1=0 gamma_2=0 gamma_3=0 gamma_4=0 alpha_2=0 c_ref_2=0 mu_hd=0 r=0 beta=1 f0=0 v_sat=114000.0 a=0.63 zeta_v=0 mu_bow=0 v_sat_bow=0 v_sat_a1=0 v_sat_a2=0 mu_min_a1=0 mu_min_a2=0 mu_l_a1=0 mu_l_a2=0 force='phi'/
/
&RECOMB_DEF mod_name='Si' type='srh' beta=0 lifetime='default' e_trap=0 n_t=1e+19 beta_n=1 beta_p=1 c_ref_n=0 c_ref_p=0 tau_n_min=0 tau_p_min=0 tau_n_max=0 tau_p_max=0 tau_n_min_a1=0 tau_n_min_a2=0 tau_p_min_a1=0 tau_p_min_a2=0 tau_n_max_a1=0 tau_n_max_a2=0 tau_p_max_a1=0 tau_p_max_a2=0 sigma_n=1e-19 sigma_p=1e-19 zeta_n=0 zeta_p=0 c_n=0 c_p=0 c_n_a1=0 c_n_a2=0 c_p_a1=0 c_p_a2=0 alpha_n=0 alpha_p=0 e_crit_n=0 e_crit_p=0 v_21=0/
&RECOMB_DEF mod_name='Si' type='aug' beta=0 lifetime='' e_trap=0 n_t=0 beta_n=0 beta_p=0 c_ref_n=0 c_ref_p=0 tau_n_min=0 tau_p_min=0 tau_n_max=0 tau_p_max=0 tau_n_min_a1=0 tau_n_min_a2=0 tau_p_min_a1=0 tau_p_min_a2=0 tau_n_max_a1=0 tau_n_max_a2=0 tau_p_max_a1=0 tau_p_max_a2=0 sigma_n=0 sigma_p=0 zeta_n=0 zeta_p=0 c_n=2.8000000000000002e-43 c_p=9.900000000000002e-44 c_n_a1=0 c_n_a2=0 c_p_a1=0 c_p_a2=0 alpha_n=0 alpha_p=0 e_crit_n=0 e_crit_p=0 v_21=0/
/
&REGION_INFO spat_dim=1/
&RANGE_GRID disc_dir='x' disc_set='pnts' intv_pnts=0 1e-05  n_pnts=201/
/
&CONTACT mod_name='CONT' con_type='ohmic'/
/
&DD n_iter=500 elec=1 hole=1/
&OUTPUT name='dut' path='output'/
&BIAS_DEF zero_bias_first=1 dv_max=0.1 list=1/
&NORMALIZATION x_norm=1 dens_norm='ni'/


&BIAS_INFO bias_fun='HDF' cont_name='C' /
&BIAS_INFO bias_fun='HDF' cont_name='A' /
&BIAS_INFO cont_name='T' bias_fun='LIN' bias_val=300.000000 300.000000 26.000000 /
