%!PS-Adobe-2.0 EPSF-2.0
%%Creator: GLE 4.2.5 <www.gle-graphics.org>
%%CreationDate: Mon Jan 09 17:55:20 2017
%%Title: continuity_pic.gle
%%BoundingBox: 0 0 215 201
%%HiResBoundingBox: 0 0 214.598 200.425
%%EndComments
%%EndProlog
gsave
/f {findfont exch scalefont setfont} bind def
/s {show} bind def
/ps {true charpath} bind def
/l {lineto} bind def
/m {newpath moveto} bind def
matrix currentmatrix /originmat exch def
/umatrix {originmat matrix concatmatrix setmatrix} def
[28.3465 0 0 28.3465 0 0] umatrix
[28.3465 0 0 28.3465 1 1] umatrix
[] 0 setdash
0.02 setlinewidth
0 setgray
0 0 m
[] 0 setdash
1 1 m
newpath 1 1 moveto 6 1 l 6 6 l 1 6 l closepath
gsave
1 setgray
fill
grestore
gsave
clip
newpath
0 setgray
0.00625 setlinewidth
2 setlinecap
24 -1 1 { /p exch def
1 dup p 0.2 mul add moveto
6 p 0.2 mul add 6 gt
{6 dup p 0.2 mul sub exch lineto stroke}
{6 dup p 0.2 mul add lineto stroke} ifelse
} for
0 -1 -24 { /p exch def
1 dup p 0.2 mul sub exch moveto
6 p 0.2 mul add 6 gt
{6 dup p 0.2 mul sub exch lineto stroke}
{6 dup p 0.2 mul add lineto stroke} ifelse
} for
grestore
newpath
1 1 m
newpath 1 1 moveto 6 1 l 6 6 l 1 6 l closepath
stroke
1 1 m
1 1 m
0 3.5 m
0 3.5 m
0 3.5 m
1.95895 3.5 l
stroke
 newpath 1.81 3.45944 moveto
1.81 3.45944 moveto
1.96136 3.5 l
1.81 3.54056 l
closepath
gsave
0 setgray
fill
0 setgray
grestore
gsave
stroke
grestore
2 3.5 m
5 3.5 m
5 3.5 m
5 3.5 m
6.95895 3.5 l
stroke
 newpath 6.81 3.45944 moveto
6.81 3.45944 moveto
6.96136 3.5 l
6.81 3.54056 l
closepath
gsave
0 setgray
fill
0 setgray
grestore
gsave
stroke
grestore
7 3.5 m
3.5 0 m
3.5 0 m
3.5 0 m
3.5 1.95895 l
stroke
 newpath 3.54056 1.81 moveto
3.54056 1.81 moveto
3.5 1.96136 l
3.45944 1.81 l
closepath
gsave
0 setgray
fill
0 setgray
grestore
gsave
stroke
grestore
3.5 2 m
3.5 5 m
3.5 5 m
3.5 5 m
3.5 6.95895 l
stroke
 newpath 3.54056 6.81 moveto
3.54056 6.81 moveto
3.5 6.96136 l
3.45944 6.81 l
closepath
gsave
0 setgray
fill
0 setgray
grestore
gsave
stroke
grestore
3.5 7 m
3.5 3.5 m
3.37284 3.37284 m
1 setlinejoin
 newpath 3.5 3.5 0.127155 0 360 arc
closepath
gsave
0 setgray
fill
0 setgray
grestore
gsave
stroke
grestore
0 setlinejoin
0.02 setlinewidth
0 setgray
3.5 3.5 m
3.6 3.6 m
3.59419 3.6 m
3.59419 3.6 m
0.3633 /Times-Roman f
(i) s
3.69518 3.6 m
(\54) s
3.78601 3.6 m
(j) s
3.6 3.6 m
1.2 3 m
1.19637 3 m
1.19637 3 m
(J) s
1.33769 2.92371 m
0.25431 /Times-Roman f
(n) s
1.46485 2.92371 m
(x) s
1.592 2.92371 m
(\54) s
1.65558 2.92371 m
(i) s
1.72628 2.92371 m
(\55) s
1.81096 2.92371 m
(1) s
1.93812 2.92371 m
(\57) s
2.00881 2.92371 m
(2) s
2.13597 2.92371 m
(\54) s
2.19955 2.92371 m
(j) s
1.2 3 m
3.6 1.5 m
3.59637 1.5 m
3.59637 1.5 m
0.3633 /Times-Roman f
(J) s
3.73769 1.42371 m
0.25431 /Times-Roman f
(n) s
3.86103 1.42371 m
(y) s
3.97166 1.42371 m
(\54) s
4.03523 1.42371 m
(i) s
4.10593 1.42371 m
(\54) s
4.16951 1.42371 m
(j) s
4.24021 1.42371 m
(\55) s
4.32489 1.42371 m
(1) s
4.45205 1.42371 m
(\57) s
4.52275 1.42371 m
(2) s
3.6 1.5 m
6.2 3 m
6.19637 3 m
6.19637 3 m
0.3633 /Times-Roman f
(J) s
6.33769 2.92371 m
0.25431 /Times-Roman f
(n) s
6.46485 2.92371 m
(x) s
6.592 2.92371 m
(\54) s
6.65558 2.92371 m
(i) s
6.72628 2.92371 m
(\53) s
6.86971 2.92371 m
(1) s
6.99686 2.92371 m
(\57) s
7.06756 2.92371 m
(2) s
7.19472 2.92371 m
(\54) s
7.25829 2.92371 m
(j) s
6.2 3 m
3.6 6.5 m
3.59637 6.5 m
3.59637 6.5 m
0.3633 /Times-Roman f
(J) s
3.73769 6.42371 m
0.25431 /Times-Roman f
(n) s
3.86103 6.42371 m
(y) s
3.97166 6.42371 m
(\54) s
4.03523 6.42371 m
(i) s
4.10593 6.42371 m
(\54) s
4.16951 6.42371 m
(j) s
4.24021 6.42371 m
(\53) s
4.38364 6.42371 m
(1) s
4.51079 6.42371 m
(\57) s
4.58149 6.42371 m
(2) s
3.6 6.5 m
6 1 m
6 1.04105 m
6 1.04105 m
6 5.95895 l
stroke
 newpath 5.95944 1.19 moveto
5.95944 1.19 moveto
6 1.03864 l
6.04056 1.19 l
closepath
6.04056 5.81 moveto
6 5.96136 l
5.95944 5.81 l
closepath
gsave
0 setgray
fill
0 setgray
grestore
gsave
stroke
grestore
6 6 m
1 1 m
1 1.04105 m
1 1.04105 m
1 5.95895 l
stroke
 newpath 0.959442 1.19 moveto
0.959442 1.19 moveto
1 1.03864 l
1.04056 1.19 l
closepath
1.04056 5.81 moveto
1 5.96136 l
0.959442 5.81 l
closepath
gsave
0 setgray
fill
0 setgray
grestore
gsave
stroke
grestore
1 6 m
1 1 m
1.04105 1 m
1.04105 1 m
5.95895 1 l
stroke
 newpath 1.19 1.04056 moveto
1.19 1.04056 moveto
1.03864 1 l
1.19 0.959442 l
closepath
5.81 0.959442 moveto
5.96136 1 l
5.81 1.04056 l
closepath
gsave
0 setgray
fill
0 setgray
grestore
gsave
stroke
grestore
6 1 m
1 6 m
1.04105 6 m
1.04105 6 m
5.95895 6 l
stroke
 newpath 1.19 6.04056 moveto
1.19 6.04056 moveto
1.03864 6 l
1.19 5.95944 l
closepath
5.81 5.95944 moveto
5.96136 6 l
5.81 6.04056 l
closepath
gsave
0 setgray
fill
0 setgray
grestore
gsave
stroke
grestore
6 6 m
0.5 4 m
0.5 4 m
0.5 4 m
1 setlinejoin
 newpath 0.654766 4.25831 moveto
0.654766 4.25831 moveto
0.656219 4.25794 l
0.657309 4.25722 l
0.658762 4.25576 l
0.700542 4.17184 l
0.714347 4.14423 l
0.715074 4.14241 l
0.757216 4.05813 l
0.784827 4.00327 l
0.784827 4.00036 l
0.783374 3.99964 l
0.518892 3.99964 l
0.517438 4.00036 l
0.517438 4.00327 l
0.559581 4.08719 l
0.587192 4.14241 l
0.587919 4.14423 l
0.629698 4.22815 l
0.643503 4.25576 l
0.644957 4.25722 l
0.646047 4.25794 l
0.6475 4.25831 l
closepath
closepath
0.638417 4.22089 moveto
0.637691 4.2198 l
0.598818 4.14241 l
0.598454 4.14023 l
0.556311 4.05631 l
0.541779 4.02725 l
0.541053 4.02688 l
0.541779 4.02616 l
0.736872 4.02616 l
0.737598 4.02688 l
0.736872 4.02725 l
0.736145 4.0287 l
0.735418 4.03052 l
0.693276 4.1148 l
0.651496 4.19873 l
0.63987 4.22198 l
0.639144 4.22234 l
0.638781 4.22198 l
closepath
closepath
gsave
0 setgray
fill
0 setgray
grestore
0 setlinejoin
0.02 setlinewidth
0 setgray
0.802629 4 m
0.3633 /Times-Roman f
(y) s
0.5 4 m
0.8 4.15 m
0.785468 4.15 m
0.785468 4.15 m
(\176) s
0.8 4.15 m
6 4 m
6 4 m
6 4 m
1 setlinejoin
 newpath 6.15477 4.25831 moveto
6.15477 4.25831 moveto
6.15622 4.25794 l
6.15731 4.25722 l
6.15876 4.25576 l
6.20054 4.17184 l
6.21435 4.14423 l
6.21507 4.14241 l
6.25722 4.05813 l
6.28483 4.00327 l
6.28483 4.00036 l
6.28337 3.99964 l
6.01889 3.99964 l
6.01744 4.00036 l
6.01744 4.00327 l
6.05958 4.08719 l
6.08719 4.14241 l
6.08792 4.14423 l
6.1297 4.22815 l
6.1435 4.25576 l
6.14496 4.25722 l
6.14605 4.25794 l
6.1475 4.25831 l
closepath
closepath
6.13842 4.22089 moveto
6.13769 4.2198 l
6.09882 4.14241 l
6.09845 4.14023 l
6.05631 4.05631 l
6.04178 4.02725 l
6.04105 4.02688 l
6.04178 4.02616 l
6.23687 4.02616 l
6.2376 4.02688 l
6.23687 4.02725 l
6.23614 4.0287 l
6.23542 4.03052 l
6.19328 4.1148 l
6.1515 4.19873 l
6.13987 4.22198 l
6.13914 4.22234 l
6.13878 4.22198 l
closepath
closepath
gsave
0 setgray
fill
0 setgray
grestore
0 setlinejoin
0.02 setlinewidth
0 setgray
6.30263 4 m
(y) s
6 4 m
6.3 4.15 m
6.28547 4.15 m
6.28547 4.15 m
(\176) s
6.3 4.15 m
5 0.65 m
5 0.65 m
5 0.65 m
1 setlinejoin
 newpath 5.15477 0.908306 moveto
5.15477 0.908306 moveto
5.15622 0.907943 l
5.15731 0.907216 l
5.15876 0.905763 l
5.20054 0.821841 l
5.21435 0.79423 l
5.21507 0.792414 l
5.25722 0.708128 l
5.28483 0.65327 l
5.28483 0.650363 l
5.28337 0.649637 l
5.01889 0.649637 l
5.01744 0.650363 l
5.01744 0.65327 l
5.05958 0.737192 l
5.08719 0.792414 l
5.08792 0.79423 l
5.1297 0.878152 l
5.1435 0.905763 l
5.14496 0.907216 l
5.14605 0.907943 l
5.1475 0.908306 l
closepath
closepath
5.13842 0.870886 moveto
5.13769 0.869796 l
5.09882 0.792414 l
5.09845 0.790234 l
5.05631 0.706311 l
5.04178 0.677247 l
5.04105 0.676884 l
5.04178 0.676158 l
5.23687 0.676158 l
5.2376 0.676884 l
5.23687 0.677247 l
5.23614 0.678701 l
5.23542 0.680517 l
5.19328 0.764803 l
5.1515 0.848725 l
5.13987 0.871976 l
5.13914 0.87234 l
5.13878 0.871976 l
closepath
closepath
gsave
0 setgray
fill
0 setgray
grestore
0 setlinejoin
0.02 setlinewidth
0 setgray
5.30263 0.65 m
(x) s
5 0.65 m
5.3 0.8 m
5.28547 0.8 m
5.28547 0.8 m
(\176) s
5.3 0.8 m
5 6.05 m
5 6.05 m
5 6.05 m
1 setlinejoin
 newpath 5.15477 6.30831 moveto
5.15477 6.30831 moveto
5.15622 6.30794 l
5.15731 6.30722 l
5.15876 6.30576 l
5.20054 6.22184 l
5.21435 6.19423 l
5.21507 6.19241 l
5.25722 6.10813 l
5.28483 6.05327 l
5.28483 6.05036 l
5.28337 6.04964 l
5.01889 6.04964 l
5.01744 6.05036 l
5.01744 6.05327 l
5.05958 6.13719 l
5.08719 6.19241 l
5.08792 6.19423 l
5.1297 6.27815 l
5.1435 6.30576 l
5.14496 6.30722 l
5.14605 6.30794 l
5.1475 6.30831 l
closepath
closepath
5.13842 6.27089 moveto
5.13769 6.2698 l
5.09882 6.19241 l
5.09845 6.19023 l
5.05631 6.10631 l
5.04178 6.07725 l
5.04105 6.07688 l
5.04178 6.07616 l
5.23687 6.07616 l
5.2376 6.07688 l
5.23687 6.07725 l
5.23614 6.0787 l
5.23542 6.08052 l
5.19328 6.1648 l
5.1515 6.24873 l
5.13987 6.27198 l
5.13914 6.27234 l
5.13878 6.27198 l
closepath
closepath
gsave
0 setgray
fill
0 setgray
grestore
0 setlinejoin
0.02 setlinewidth
0 setgray
5.30263 6.05 m
(x) s
5 6.05 m
5.3 6.2 m
5.28547 6.2 m
5.28547 6.2 m
(\176) s
5.3 6.2 m
showpage
grestore
%%Trailer
