%!PS-Adobe-2.0 EPSF-2.0
%%Creator: GLE 4.2.5 <www.gle-graphics.org>
%%CreationDate: Sat Nov 26 19:40:05 2016
%%Title: koordinatensystem.gle
%%BoundingBox: 0 0 343 286
%%HiResBoundingBox: 0 0 342.157 285.465
%%EndComments
%%EndProlog
gsave
/f {findfont exch scalefont setfont} bind def
/s {show} bind def
/ps {true charpath} bind def
/l {lineto} bind def
/m {newpath moveto} bind def
matrix currentmatrix /originmat exch def
/umatrix {originmat matrix concatmatrix setmatrix} def
[28.3465 0 0 28.3465 0 0] umatrix
[28.3465 0 0 28.3465 1 1] umatrix
[] 0 setdash
0.02 setlinewidth
0 setgray
0 0 m
[] 0 setdash
4 4 m
newpath 4 4 moveto 8 4 l 8 7 l 4 7 l closepath
gsave
1 setgray
fill
grestore
gsave
clip
newpath
0 setgray
0.00625 setlinewidth
2 setlinecap
14 -1 1 { /p exch def
4 dup p 0.2 mul add moveto
8 p 0.2 mul add 7 gt
{7 dup p 0.2 mul sub exch lineto stroke}
{8 dup p 0.2 mul add lineto stroke} ifelse
} for
0 -1 -19 { /p exch def
4 dup p 0.2 mul sub exch moveto
8 p 0.2 mul add 7 gt
{7 dup p 0.2 mul sub exch lineto stroke}
{8 dup p 0.2 mul add lineto stroke} ifelse
} for
grestore
newpath
4 4 m
newpath 4 4 moveto 8 4 l 8 7 l 4 7 l closepath
stroke
4 4 m
4 4 m
1 1 m
[0.04 0.08 ] 0 setdash
1 1 m
2 1 l
stroke
[] 0 setdash
2 1 m
2 1 m
10.9589 1 l
stroke
 newpath 10.81 0.959442 moveto
10.81 0.959442 moveto
10.9614 1 l
10.81 1.04056 l
closepath
gsave
0 setgray
fill
0 setgray
grestore
gsave
stroke
grestore
11 1 m
1 1 m
[0.04 0.08 ] 0 setdash
1 1 m
1 2 l
stroke
[] 0 setdash
1 2 m
1 2 m
1 8.95895 l
stroke
 newpath 1.04056 8.81 moveto
1.04056 8.81 moveto
1 8.96136 l
0.959442 8.81 l
closepath
gsave
0 setgray
fill
0 setgray
grestore
gsave
stroke
grestore
1 9 m
1 1 m
2 1 m
[0.04 0.08 ] 0 setdash
2 1 m
2 9 l
stroke
1 1 m
6 1 m
6 1 m
6 9 l
stroke
1 1 m
10 1 m
10 1 m
10 9 l
stroke
1 1 m
1 2 m
[0.04 0.08 ] 0 setdash
1 2 m
11 2 l
stroke
1 1 m
1 6 m
1 6 m
11 6 l
stroke
1 1 m
1 8 m
1 8 m
11 8 l
stroke
1 1 m
2 1 m
2.1 1.2 m
2.09382 1.2 m
2.09382 1.2 m
0.3633 /Times-Roman f
(x) s
2.27547 1.12371 m
0.25431 /Times-Roman f
(i) s
2.34617 1.12371 m
(\55) s
2.43086 1.12371 m
(1) s
2.1 1.2 m
[] 0 setdash
1 1 m
2 1 m
2 0.9 m
2 0.9 m
2 1.1 l
stroke
1 1 m
6 1 m
6.1 1.2 m
6.09382 1.2 m
6.09382 1.2 m
0.3633 /Times-Roman f
(x) s
6.27547 1.12371 m
0.25431 /Times-Roman f
(i) s
6.1 1.2 m
[] 0 setdash
1 1 m
6 1 m
6 0.9 m
6 0.9 m
6 1.1 l
stroke
1 1 m
10 1 m
10.1 1.2 m
10.0938 1.2 m
10.0938 1.2 m
0.3633 /Times-Roman f
(x) s
10.2755 1.12371 m
0.25431 /Times-Roman f
(i) s
10.3462 1.12371 m
(\53) s
10.4896 1.12371 m
(1) s
10.1 1.2 m
[] 0 setdash
1 1 m
10 1 m
10 0.9 m
10 0.9 m
10 1.1 l
stroke
1 1 m
1 2 m
1.1 2.2 m
1.09491 2.2 m
1.09491 2.2 m
0.3633 /Times-Roman f
(y) s
1.27656 2.12371 m
0.25431 /Times-Roman f
(j) s
1.34726 2.12371 m
(\55) s
1.43195 2.12371 m
(1) s
1.1 2.2 m
[] 0 setdash
1 1 m
1 2 m
0.9 2 m
0.9 2 m
1.1 2 l
stroke
1 1 m
1 6 m
1.1 6.2 m
1.09491 6.2 m
1.09491 6.2 m
0.3633 /Times-Roman f
(y) s
1.27656 6.12371 m
0.25431 /Times-Roman f
(j) s
1.1 6.2 m
[] 0 setdash
1 1 m
6 1 m
6 0.9 m
6 0.9 m
6 1.1 l
stroke
1 1 m
1 8 m
1.1 8.2 m
1.09491 8.2 m
1.09491 8.2 m
0.3633 /Times-Roman f
(y) s
1.27656 8.12371 m
0.25431 /Times-Roman f
(j) s
1.34726 8.12371 m
(\53) s
1.49069 8.12371 m
(1) s
1.1 8.2 m
[] 0 setdash
1 1 m
1 8 m
0.9 8 m
0.9 8 m
1.1 8 l
stroke
[] 0 setdash
1 1 m
11 1.1 m
10.9938 1.1 m
10.9938 1.1 m
0.3633 /Times-Roman f
(x) s
11 1.1 m
[] 0 setdash
1 1 m
0.7 9 m
0.694914 9 m
0.694914 9 m
(y) s
0.7 9 m
1 1 m
11 1 m
11 2 m
11 2.04105 m
11 2.04105 m
11 5.95895 l
stroke
 newpath 10.9594 2.19 moveto
10.9594 2.19 moveto
11 2.03864 l
11.0406 2.19 l
closepath
11.0406 5.81 moveto
11 5.96136 l
10.9594 5.81 l
closepath
gsave
0 setgray
fill
0 setgray
grestore
gsave
stroke
grestore
11 6 m
1 1 m
11 1 m
11 6 m
11 6.04105 m
11 6.04105 m
11 7.95895 l
stroke
 newpath 10.9594 6.19 moveto
10.9594 6.19 moveto
11 6.03864 l
11.0406 6.19 l
closepath
11.0406 7.81 moveto
11 7.96136 l
10.9594 7.81 l
closepath
gsave
0 setgray
fill
0 setgray
grestore
gsave
stroke
grestore
11 8 m
1 1 m
2 1 m
2 9 m
2.04105 9 m
2.04105 9 m
5.95895 9 l
stroke
 newpath 2.19 9.04056 moveto
2.19 9.04056 moveto
2.03864 9 l
2.19 8.95944 l
closepath
5.81 8.95944 moveto
5.96136 9 l
5.81 9.04056 l
closepath
gsave
0 setgray
fill
0 setgray
grestore
gsave
stroke
grestore
6 9 m
1 1 m
6 1 m
6 9 m
6.04105 9 m
6.04105 9 m
9.95895 9 l
stroke
 newpath 6.19 9.04056 moveto
6.19 9.04056 moveto
6.03864 9 l
6.19 8.95944 l
closepath
9.81 8.95944 moveto
9.96136 9 l
9.81 9.04056 l
closepath
gsave
0 setgray
fill
0 setgray
grestore
gsave
stroke
grestore
10 9 m
1 1 m
11 1 m
11 4 m
11 4 m
11 4 m
1 setlinejoin
 newpath 11.1548 4.25831 moveto
11.1548 4.25831 moveto
11.1562 4.25794 l
11.1573 4.25722 l
11.1588 4.25576 l
11.2005 4.17184 l
11.2143 4.14423 l
11.2151 4.14241 l
11.2572 4.05813 l
11.2848 4.00327 l
11.2848 4.00036 l
11.2834 3.99964 l
11.0189 3.99964 l
11.0174 4.00036 l
11.0174 4.00327 l
11.0596 4.08719 l
11.0872 4.14241 l
11.0879 4.14423 l
11.1297 4.22815 l
11.1435 4.25576 l
11.145 4.25722 l
11.146 4.25794 l
11.1475 4.25831 l
closepath
closepath
11.1384 4.22089 moveto
11.1377 4.2198 l
11.0988 4.14241 l
11.0985 4.14023 l
11.0563 4.05631 l
11.0418 4.02725 l
11.0411 4.02688 l
11.0418 4.02616 l
11.2369 4.02616 l
11.2376 4.02688 l
11.2369 4.02725 l
11.2361 4.0287 l
11.2354 4.03052 l
11.1933 4.1148 l
11.1515 4.19873 l
11.1399 4.22198 l
11.1391 4.22234 l
11.1388 4.22198 l
closepath
closepath
gsave
0 setgray
fill
0 setgray
grestore
0 setlinejoin
0.02 setlinewidth
0 setgray
11.3026 4 m
(y) s
11.4843 3.92371 m
0.25431 /Times-Roman f
(j) s
11.555 3.92371 m
(\55) s
11.6397 3.92371 m
(1) s
11 4 m
1 1 m
11 1 m
11 7 m
11 7 m
11 7 m
1 setlinejoin
 newpath 11.1548 7.25831 moveto
11.1548 7.25831 moveto
11.1562 7.25794 l
11.1573 7.25722 l
11.1588 7.25576 l
11.2005 7.17184 l
11.2143 7.14423 l
11.2151 7.14241 l
11.2572 7.05813 l
11.2848 7.00327 l
11.2848 7.00036 l
11.2834 6.99964 l
11.0189 6.99964 l
11.0174 7.00036 l
11.0174 7.00327 l
11.0596 7.08719 l
11.0872 7.14241 l
11.0879 7.14423 l
11.1297 7.22815 l
11.1435 7.25576 l
11.145 7.25722 l
11.146 7.25794 l
11.1475 7.25831 l
closepath
closepath
11.1384 7.22089 moveto
11.1377 7.2198 l
11.0988 7.14241 l
11.0985 7.14023 l
11.0563 7.05631 l
11.0418 7.02725 l
11.0411 7.02688 l
11.0418 7.02616 l
11.2369 7.02616 l
11.2376 7.02688 l
11.2369 7.02725 l
11.2361 7.0287 l
11.2354 7.03052 l
11.1933 7.1148 l
11.1515 7.19873 l
11.1399 7.22198 l
11.1391 7.22234 l
11.1388 7.22198 l
closepath
closepath
gsave
0 setgray
fill
0 setgray
grestore
0 setlinejoin
0.02 setlinewidth
0 setgray
11.3026 7 m
0.3633 /Times-Roman f
(y) s
11.4843 6.92371 m
0.25431 /Times-Roman f
(j) s
11 7 m
1 1 m
4 1 m
4 9.15 m
4 9.15 m
4 9.15 m
1 setlinejoin
 newpath 4.15477 9.40831 moveto
4.15477 9.40831 moveto
4.15622 9.40794 l
4.15731 9.40722 l
4.15876 9.40576 l
4.20054 9.32184 l
4.21435 9.29423 l
4.21507 9.29241 l
4.25722 9.20813 l
4.28483 9.15327 l
4.28483 9.15036 l
4.28337 9.14964 l
4.01889 9.14964 l
4.01744 9.15036 l
4.01744 9.15327 l
4.05958 9.23719 l
4.08719 9.29241 l
4.08792 9.29423 l
4.1297 9.37815 l
4.1435 9.40576 l
4.14496 9.40722 l
4.14605 9.40794 l
4.1475 9.40831 l
closepath
closepath
4.13842 9.37089 moveto
4.13769 9.3698 l
4.09882 9.29241 l
4.09845 9.29023 l
4.05631 9.20631 l
4.04178 9.17725 l
4.04105 9.17688 l
4.04178 9.17616 l
4.23687 9.17616 l
4.2376 9.17688 l
4.23687 9.17725 l
4.23614 9.1787 l
4.23542 9.18052 l
4.19328 9.2648 l
4.1515 9.34873 l
4.13987 9.37198 l
4.13914 9.37234 l
4.13878 9.37198 l
closepath
closepath
gsave
0 setgray
fill
0 setgray
grestore
0 setlinejoin
0.02 setlinewidth
0 setgray
4.30263 9.15 m
0.3633 /Times-Roman f
(x) s
4.48428 9.07371 m
0.25431 /Times-Roman f
(i) s
4.55498 9.07371 m
(\55) s
4.63966 9.07371 m
(1) s
4 9.15 m
1 1 m
8 1 m
8 9.15 m
8 9.15 m
8 9.15 m
1 setlinejoin
 newpath 8.15477 9.40831 moveto
8.15477 9.40831 moveto
8.15622 9.40794 l
8.15731 9.40722 l
8.15876 9.40576 l
8.20054 9.32184 l
8.21435 9.29423 l
8.21507 9.29241 l
8.25722 9.20813 l
8.28483 9.15327 l
8.28483 9.15036 l
8.28337 9.14964 l
8.01889 9.14964 l
8.01744 9.15036 l
8.01744 9.15327 l
8.05958 9.23719 l
8.08719 9.29241 l
8.08792 9.29423 l
8.1297 9.37815 l
8.1435 9.40576 l
8.14496 9.40722 l
8.14605 9.40794 l
8.1475 9.40831 l
closepath
closepath
8.13842 9.37089 moveto
8.13769 9.3698 l
8.09882 9.29241 l
8.09845 9.29023 l
8.05631 9.20631 l
8.04178 9.17725 l
8.04105 9.17688 l
8.04178 9.17616 l
8.23687 9.17616 l
8.2376 9.17688 l
8.23687 9.17725 l
8.23614 9.1787 l
8.23542 9.18052 l
8.19328 9.2648 l
8.1515 9.34873 l
8.13987 9.37198 l
8.13914 9.37234 l
8.13878 9.37198 l
closepath
closepath
gsave
0 setgray
fill
0 setgray
grestore
0 setlinejoin
0.02 setlinewidth
0 setgray
8.30263 9.15 m
0.3633 /Times-Roman f
(x) s
8.48428 9.07371 m
0.25431 /Times-Roman f
(i) s
8 9.15 m
1 1 m
4 4 m
[0.16 0.04 ] 0 setdash
4 4 m
4 4 m
7.95895 4 l
stroke
[] 0 setdash
 newpath 7.81 3.95944 moveto
7.81 3.95944 moveto
7.96136 4 l
7.81 4.04056 l
closepath
gsave
0 setgray
fill
0 setgray
grestore
gsave
stroke
grestore
[0.16 0.04 ] 0 setdash
8 4 m
8 4 m
8 4 m
8 6.95895 l
stroke
[] 0 setdash
 newpath 8.04056 6.81 moveto
8.04056 6.81 moveto
8 6.96136 l
7.95944 6.81 l
closepath
gsave
0 setgray
fill
0 setgray
grestore
gsave
stroke
grestore
[0.16 0.04 ] 0 setdash
8 7 m
8 7 m
8 7 m
4.04105 7 l
stroke
[] 0 setdash
 newpath 4.19 7.04056 moveto
4.19 7.04056 moveto
4.03864 7 l
4.19 6.95944 l
closepath
gsave
0 setgray
fill
0 setgray
grestore
gsave
stroke
grestore
[0.16 0.04 ] 0 setdash
4 7 m
4 7 m
4 7 m
4 4.04105 l
stroke
[] 0 setdash
 newpath 3.95944 4.19 moveto
3.95944 4.19 moveto
4 4.03864 l
4.04056 4.19 l
closepath
gsave
0 setgray
fill
0 setgray
grestore
gsave
stroke
grestore
[0.16 0.04 ] 0 setdash
4 4 m
2 2 m
1.87285 1.87285 m
1 setlinejoin
 newpath 2 2 0.127155 0 360 arc
closepath
gsave
0 setgray
fill
0 setgray
grestore
gsave
stroke
grestore
0 setlinejoin
0.02 setlinewidth
0 setgray
2 2 m
6 2 m
5.87285 1.87285 m
1 setlinejoin
 newpath 6 2 0.127155 0 360 arc
closepath
gsave
0 setgray
fill
0 setgray
grestore
gsave
stroke
grestore
0 setlinejoin
0.02 setlinewidth
0 setgray
6 2 m
10 2 m
9.87285 1.87285 m
1 setlinejoin
 newpath 10 2 0.127155 0 360 arc
closepath
gsave
0 setgray
fill
0 setgray
grestore
gsave
stroke
grestore
0 setlinejoin
0.02 setlinewidth
0 setgray
10 2 m
10 6 m
9.87285 5.87285 m
1 setlinejoin
 newpath 10 6 0.127155 0 360 arc
closepath
gsave
0 setgray
fill
0 setgray
grestore
gsave
stroke
grestore
0 setlinejoin
0.02 setlinewidth
0 setgray
10 6 m
6 6 m
5.87285 5.87285 m
1 setlinejoin
 newpath 6 6 0.127155 0 360 arc
closepath
gsave
0 setgray
fill
0 setgray
grestore
gsave
stroke
grestore
0 setlinejoin
0.02 setlinewidth
0 setgray
6 6 m
2 6 m
1.87285 5.87285 m
1 setlinejoin
 newpath 2 6 0.127155 0 360 arc
closepath
gsave
0 setgray
fill
0 setgray
grestore
gsave
stroke
grestore
0 setlinejoin
0.02 setlinewidth
0 setgray
2 6 m
2 8 m
1.87285 7.87285 m
1 setlinejoin
 newpath 2 8 0.127155 0 360 arc
closepath
gsave
0 setgray
fill
0 setgray
grestore
gsave
stroke
grestore
0 setlinejoin
0.02 setlinewidth
0 setgray
2 8 m
6 8 m
5.87285 7.87285 m
1 setlinejoin
 newpath 6 8 0.127155 0 360 arc
closepath
gsave
0 setgray
fill
0 setgray
grestore
gsave
stroke
grestore
0 setlinejoin
0.02 setlinewidth
0 setgray
6 8 m
10 8 m
9.87285 7.87285 m
1 setlinejoin
 newpath 10 8 0.127155 0 360 arc
closepath
gsave
0 setgray
fill
0 setgray
grestore
gsave
stroke
grestore
0 setlinejoin
0.02 setlinewidth
0 setgray
10 8 m
6 2 m
6.1 2.25 m
6.09419 2.25 m
6.09419 2.25 m
0.3633 /Times-Roman f
(i) s
6.19518 2.25 m
(\54) s
6.28601 2.25 m
(j) s
6.38701 2.25 m
(\55) s
6.50799 2.25 m
(1) s
6.1 2.25 m
9.8 6 m
10.05 6.25 m
10.0442 6.25 m
10.0442 6.25 m
(i) s
10.1452 6.25 m
(\53) s
10.3501 6.25 m
(1) s
10.5317 6.25 m
(\54) s
10.6226 6.25 m
(j) s
10.05 6.25 m
2 6 m
2.1 6.25 m
2.09419 6.25 m
2.09419 6.25 m
(i) s
2.19518 6.25 m
(\55) s
2.31616 6.25 m
(1) s
2.49781 6.25 m
(\54) s
2.58864 6.25 m
(j) s
2.1 6.25 m
6 6 m
6.1 6.25 m
6.09419 6.25 m
6.09419 6.25 m
(i) s
6.19518 6.25 m
(\54) s
6.28601 6.25 m
(j) s
6.1 6.25 m
6 8 m
6.1 8.25 m
6.09419 8.25 m
6.09419 8.25 m
(i) s
6.19518 8.25 m
(\54) s
6.28601 8.25 m
(j) s
6.38701 8.25 m
(\53) s
6.59191 8.25 m
(1) s
6.1 8.25 m
7 7.2 m
7 7.2 m
7 7.2 m
1 setlinejoin
 newpath 7.13442 7.45831 moveto
7.13442 7.45831 moveto
7.17584 7.45576 7.20526 7.41398 7.20454 7.37438 curveto
7.20708 7.32788 7.19001 7.27811 7.16385 7.23851 curveto
7.13914 7.20182 7.08756 7.17748 7.04578 7.2 curveto
7.01998 7.21562 7.00945 7.24868 7.01744 7.27666 curveto
7.02616 7.31844 7.06103 7.3515 7.10172 7.36276 curveto
7.12134 7.36639 7.14641 7.36494 7.15949 7.34568 curveto
7.16421 7.33842 7.16675 7.32933 7.16784 7.32134 curveto
7.17693 7.35804 7.18783 7.39873 7.16385 7.43215 curveto
7.14096 7.46158 7.09191 7.45213 7.07448 7.42089 curveto
7.07629 7.42052 l
7.08647 7.42307 7.09446 7.4118 7.09046 7.40199 curveto
7.08683 7.38892 7.06394 7.3831 7.05885 7.398 curveto
7.05922 7.43578 7.09882 7.46267 7.13442 7.45831 curveto
closepath
closepath
7.1119 7.35622 moveto
7.07956 7.35004 7.05958 7.31916 7.05232 7.28901 curveto
7.04614 7.26358 7.03488 7.23524 7.05304 7.21235 curveto
7.07956 7.18583 7.12316 7.20836 7.13842 7.23706 curveto
7.15222 7.26394 7.16566 7.29518 7.15985 7.32461 curveto
7.15695 7.34023 7.14496 7.35404 7.12897 7.35658 curveto
7.11262 7.35658 l
closepath
closepath
gsave
0 setgray
fill
0 setgray
grestore
0 setlinejoin
0.02 setlinewidth
0 setgray
7.19255 7.2 m
(G) s
7.45485 7.12371 m
0.25431 /Times-Roman f
(i) s
7.52555 7.12371 m
(\54) s
7.58913 7.12371 m
(j) s
7 7.2 m
4.1 6.6 m
4.08837 6.6 m
4.08837 6.6 m
0.3633 /Times-Roman f
(G) s
4.35068 6.52371 m
0.25431 /Times-Roman f
(i) s
4.42138 6.52371 m
(\54) s
4.48495 6.52371 m
(j) s
4.1 6.6 m
8.1 6.5 m
8.09419 6.5 m
8.09419 6.5 m
0.3633 /Times-Roman f
(i) s
8.19518 6.5 m
(\53) s
8.40009 6.5 m
(1) s
8.58174 6.5 m
(\57) s
8.68273 6.5 m
(2) s
8.86438 6.5 m
(\54) s
8.95521 6.5 m
(j) s
8.1 6.5 m
4.5 7.2 m
4.49419 7.2 m
4.49419 7.2 m
(i) s
4.59518 7.2 m
(\54) s
4.68601 7.2 m
(j) s
4.78701 7.2 m
(\53) s
4.99191 7.2 m
(1) s
5.17356 7.2 m
(\57) s
5.27456 7.2 m
(2) s
4.5 7.2 m
3 4.5 m
2.99419 4.5 m
2.99419 4.5 m
(i) s
3.09518 4.5 m
(\55) s
3.21616 4.5 m
(1) s
3.39781 4.5 m
(\57) s
3.49881 4.5 m
(2) s
3.68046 4.5 m
(\54) s
3.77129 4.5 m
(j) s
3 4.5 m
7 3.5 m
6.99419 3.5 m
6.99419 3.5 m
(i) s
7.09518 3.5 m
(\54) s
7.18601 3.5 m
(j) s
7.28701 3.5 m
(\55) s
7.40799 3.5 m
(1) s
7.58964 3.5 m
(\57) s
7.69063 3.5 m
(2) s
7 3.5 m
showpage
grestore
%%Trailer
