%!PS-Adobe-2.0 EPSF-2.0
%%Creator: GLE 4.2.5 <www.gle-graphics.org>
%%CreationDate: Sun Dec 18 14:24:00 2016
%%Title: ordering.gle
%%BoundingBox: 0 0 569 314
%%HiResBoundingBox: 0 0 568.929 313.811
%%EndComments
%%EndProlog
gsave
/f {findfont exch scalefont setfont} bind def
/s {show} bind def
/ps {true charpath} bind def
/l {lineto} bind def
/m {newpath moveto} bind def
matrix currentmatrix /originmat exch def
/umatrix {originmat matrix concatmatrix setmatrix} def
[28.3465 0 0 28.3465 0 0] umatrix
[28.3465 0 0 28.3465 1 1] umatrix
[] 0 setdash
0.02 setlinewidth
0 setgray
0 0 m
[] 0 setdash
0.05 setlinewidth
2 1 m
1.87285 0.872845 m
1 setlinejoin
 newpath 2 1 0.127155 0 360 arc
closepath
gsave
0 setgray
fill
0 setgray
grestore
gsave
stroke
grestore
0 setlinejoin
0.05 setlinewidth
0 setgray
2 1 m
2.15 1.15 m
2.10967 1.15 m
2.10967 1.15 m
0.3633 /Times-Roman f
(1) s
2.15 1.15 m
2.15 1.15 m
2 1 m
2 1 m
2 1 m
3.89737 1 l
stroke
 newpath 3.525 0.898606 moveto
3.525 0.898606 moveto
3.90341 1 l
3.525 1.10139 l
closepath
gsave
0 setgray
fill
0 setgray
grestore
gsave
stroke
grestore
4 1 m
4 1 m
3.87285 0.872845 m
1 setlinejoin
 newpath 4 1 0.127155 0 360 arc
closepath
gsave
0 setgray
fill
0 setgray
grestore
gsave
stroke
grestore
0 setlinejoin
0.05 setlinewidth
0 setgray
4 1 m
4.15 1.15 m
4.1391 1.15 m
4.1391 1.15 m
(2) s
4.15 1.15 m
4.15 1.15 m
4 1 m
4 1 m
4 1 m
5.89737 1 l
stroke
 newpath 5.525 0.898606 moveto
5.525 0.898606 moveto
5.90341 1 l
5.525 1.10139 l
closepath
gsave
0 setgray
fill
0 setgray
grestore
gsave
stroke
grestore
6 1 m
6 1 m
5.87285 0.872845 m
1 setlinejoin
 newpath 6 1 0.127155 0 360 arc
closepath
gsave
0 setgray
fill
0 setgray
grestore
gsave
stroke
grestore
0 setlinejoin
0.05 setlinewidth
0 setgray
6 1 m
6.15 1.15 m
6.13438 1.15 m
6.13438 1.15 m
(3) s
6.15 1.15 m
6.15 1.15 m
6 1 m
6 1 m
6 1 m
7.89737 1 l
stroke
 newpath 7.525 0.898606 moveto
7.525 0.898606 moveto
7.90341 1 l
7.525 1.10139 l
closepath
gsave
0 setgray
fill
0 setgray
grestore
gsave
stroke
grestore
8 1 m
8 1 m
7.87285 0.872845 m
1 setlinejoin
 newpath 8 1 0.127155 0 360 arc
closepath
gsave
0 setgray
fill
0 setgray
grestore
gsave
stroke
grestore
0 setlinejoin
0.05 setlinewidth
0 setgray
8 1 m
8.15 1.15 m
8.14564 1.15 m
8.14564 1.15 m
(4) s
8.15 1.15 m
8.15 1.15 m
8 1 m
8 1 m
8 1 m
9.89737 1 l
stroke
 newpath 9.525 0.898606 moveto
9.525 0.898606 moveto
9.90341 1 l
9.525 1.10139 l
closepath
gsave
0 setgray
fill
0 setgray
grestore
gsave
stroke
grestore
10 1 m
10 1 m
9.87285 0.872845 m
1 setlinejoin
 newpath 10 1 0.127155 0 360 arc
closepath
gsave
0 setgray
fill
0 setgray
grestore
gsave
stroke
grestore
0 setlinejoin
0.05 setlinewidth
0 setgray
10 1 m
10.15 1.15 m
10.1384 1.15 m
10.1384 1.15 m
(5) s
10.15 1.15 m
10.15 1.15 m
10 1 m
10 1 m
10 1 m
11.8974 1 l
stroke
 newpath 11.525 0.898606 moveto
11.525 0.898606 moveto
11.9034 1 l
11.525 1.10139 l
closepath
gsave
0 setgray
fill
0 setgray
grestore
gsave
stroke
grestore
12 1 m
12 1 m
11.8728 0.872845 m
1 setlinejoin
 newpath 12 1 0.127155 0 360 arc
closepath
gsave
0 setgray
fill
0 setgray
grestore
gsave
stroke
grestore
0 setlinejoin
0.05 setlinewidth
0 setgray
12 1 m
12.15 1.15 m
12.1376 1.15 m
12.1376 1.15 m
(6) s
12.15 1.15 m
12.15 1.15 m
12 1 m
12 1 m
12 1 m
13.8974 1 l
stroke
 newpath 13.525 0.898606 moveto
13.525 0.898606 moveto
13.9034 1 l
13.525 1.10139 l
closepath
gsave
0 setgray
fill
0 setgray
grestore
gsave
stroke
grestore
14 1 m
14 1 m
13.8728 0.872845 m
1 setlinejoin
 newpath 14 1 0.127155 0 360 arc
closepath
gsave
0 setgray
fill
0 setgray
grestore
gsave
stroke
grestore
0 setlinejoin
0.05 setlinewidth
0 setgray
14 1 m
14.15 1.15 m
14.1427 1.15 m
14.1427 1.15 m
(7) s
14.15 1.15 m
14.15 1.15 m
14 1 m
14 1 m
14 1 m
15.8974 1 l
stroke
 newpath 15.525 0.898606 moveto
15.525 0.898606 moveto
15.9034 1 l
15.525 1.10139 l
closepath
gsave
0 setgray
fill
0 setgray
grestore
gsave
stroke
grestore
16 1 m
16 1 m
15.8728 0.872845 m
1 setlinejoin
 newpath 16 1 0.127155 0 360 arc
closepath
gsave
0 setgray
fill
0 setgray
grestore
gsave
stroke
grestore
0 setlinejoin
0.05 setlinewidth
0 setgray
16 1 m
16.15 1.15 m
16.1297 1.15 m
16.1297 1.15 m
(8) s
16.15 1.15 m
16.15 1.15 m
16 1 m
16 1 m
16 1 m
2.10237 1.99269 l
stroke
 newpath 2.48102 2.06729 moveto
2.48102 2.06729 moveto
2.09635 1.99312 l
2.46657 1.86502 l
closepath
gsave
0 setgray
fill
0 setgray
grestore
gsave
stroke
grestore
2 2 m
2 2 m
1.87285 1.87285 m
1 setlinejoin
 newpath 2 2 0.127155 0 360 arc
closepath
gsave
0 setgray
fill
0 setgray
grestore
gsave
stroke
grestore
0 setlinejoin
0.05 setlinewidth
0 setgray
2 2 m
2.15 2.15 m
2.1391 2.15 m
2.1391 2.15 m
(9) s
2.15 2.15 m
2.15 2.15 m
2 2 m
2 2 m
2 2 m
3.89737 2 l
stroke
 newpath 3.525 1.89861 moveto
3.525 1.89861 moveto
3.90341 2 l
3.525 2.10139 l
closepath
gsave
0 setgray
fill
0 setgray
grestore
gsave
stroke
grestore
4 2 m
4 2 m
3.87285 1.87285 m
1 setlinejoin
 newpath 4 2 0.127155 0 360 arc
closepath
gsave
0 setgray
fill
0 setgray
grestore
gsave
stroke
grestore
0 setlinejoin
0.05 setlinewidth
0 setgray
4 2 m
4.15 2.15 m
4.10967 2.15 m
4.10967 2.15 m
(1) s
4.29132 2.15 m
(0) s
4.15 2.15 m
4.15 2.15 m
4 2 m
4 2 m
4 2 m
5.89737 2 l
stroke
 newpath 5.525 1.89861 moveto
5.525 1.89861 moveto
5.90341 2 l
5.525 2.10139 l
closepath
gsave
0 setgray
fill
0 setgray
grestore
gsave
stroke
grestore
6 2 m
6 2 m
5.87285 1.87285 m
1 setlinejoin
 newpath 6 2 0.127155 0 360 arc
closepath
gsave
0 setgray
fill
0 setgray
grestore
gsave
stroke
grestore
0 setlinejoin
0.05 setlinewidth
0 setgray
6 2 m
6.15 2.15 m
6.10967 2.15 m
6.10967 2.15 m
(1) s
6.29132 2.15 m
(1) s
6.15 2.15 m
6.15 2.15 m
6 2 m
6 2 m
6 2 m
7.89737 2 l
stroke
 newpath 7.525 1.89861 moveto
7.525 1.89861 moveto
7.90341 2 l
7.525 2.10139 l
closepath
gsave
0 setgray
fill
0 setgray
grestore
gsave
stroke
grestore
8 2 m
8 2 m
7.87285 1.87285 m
1 setlinejoin
 newpath 8 2 0.127155 0 360 arc
closepath
gsave
0 setgray
fill
0 setgray
grestore
gsave
stroke
grestore
0 setlinejoin
0.05 setlinewidth
0 setgray
8 2 m
8.15 2.15 m
8.10967 2.15 m
8.10967 2.15 m
(1) s
8.29132 2.15 m
(2) s
8.15 2.15 m
8.15 2.15 m
8 2 m
8 2 m
8 2 m
9.89737 2 l
stroke
 newpath 9.525 1.89861 moveto
9.525 1.89861 moveto
9.90341 2 l
9.525 2.10139 l
closepath
gsave
0 setgray
fill
0 setgray
grestore
gsave
stroke
grestore
10 2 m
10 2 m
9.87285 1.87285 m
1 setlinejoin
 newpath 10 2 0.127155 0 360 arc
closepath
gsave
0 setgray
fill
0 setgray
grestore
gsave
stroke
grestore
0 setlinejoin
0.05 setlinewidth
0 setgray
10 2 m
10.15 2.15 m
10.1097 2.15 m
10.1097 2.15 m
(1) s
10.2913 2.15 m
(3) s
10.15 2.15 m
10.15 2.15 m
10 2 m
10 2 m
10 2 m
11.8974 2 l
stroke
 newpath 11.525 1.89861 moveto
11.525 1.89861 moveto
11.9034 2 l
11.525 2.10139 l
closepath
gsave
0 setgray
fill
0 setgray
grestore
gsave
stroke
grestore
12 2 m
12 2 m
11.8728 1.87285 m
1 setlinejoin
 newpath 12 2 0.127155 0 360 arc
closepath
gsave
0 setgray
fill
0 setgray
grestore
gsave
stroke
grestore
0 setlinejoin
0.05 setlinewidth
0 setgray
12 2 m
12.15 2.15 m
12.1097 2.15 m
12.1097 2.15 m
(1) s
12.2913 2.15 m
(4) s
12.15 2.15 m
12.15 2.15 m
12 2 m
12 2 m
12 2 m
13.8974 2 l
stroke
 newpath 13.525 1.89861 moveto
13.525 1.89861 moveto
13.9034 2 l
13.525 2.10139 l
closepath
gsave
0 setgray
fill
0 setgray
grestore
gsave
stroke
grestore
14 2 m
14 2 m
13.8728 1.87285 m
1 setlinejoin
 newpath 14 2 0.127155 0 360 arc
closepath
gsave
0 setgray
fill
0 setgray
grestore
gsave
stroke
grestore
0 setlinejoin
0.05 setlinewidth
0 setgray
14 2 m
14.15 2.15 m
14.1097 2.15 m
14.1097 2.15 m
(1) s
14.2913 2.15 m
(5) s
14.15 2.15 m
14.15 2.15 m
14 2 m
14 2 m
14 2 m
15.8974 2 l
stroke
 newpath 15.525 1.89861 moveto
15.525 1.89861 moveto
15.9034 2 l
15.525 2.10139 l
closepath
gsave
0 setgray
fill
0 setgray
grestore
gsave
stroke
grestore
16 2 m
16 2 m
15.8728 1.87285 m
1 setlinejoin
 newpath 16 2 0.127155 0 360 arc
closepath
gsave
0 setgray
fill
0 setgray
grestore
gsave
stroke
grestore
0 setlinejoin
0.05 setlinewidth
0 setgray
16 2 m
16.15 2.15 m
16.1097 2.15 m
16.1097 2.15 m
(1) s
16.2913 2.15 m
(6) s
16.15 2.15 m
16.15 2.15 m
16 2 m
16 2 m
16 2 m
2.10237 2.99269 l
stroke
 newpath 2.48102 3.06729 moveto
2.48102 3.06729 moveto
2.09635 2.99312 l
2.46657 2.86502 l
closepath
gsave
0 setgray
fill
0 setgray
grestore
gsave
stroke
grestore
2 3 m
2 3 m
1.87285 2.87285 m
1 setlinejoin
 newpath 2 3 0.127155 0 360 arc
closepath
gsave
0 setgray
fill
0 setgray
grestore
gsave
stroke
grestore
0 setlinejoin
0.05 setlinewidth
0 setgray
2 3 m
2.15 3.15 m
2.10967 3.15 m
2.10967 3.15 m
(1) s
2.29132 3.15 m
(7) s
2.15 3.15 m
2.15 3.15 m
2 3 m
2 3 m
2 3 m
3.89737 3 l
stroke
 newpath 3.525 2.89861 moveto
3.525 2.89861 moveto
3.90341 3 l
3.525 3.10139 l
closepath
gsave
0 setgray
fill
0 setgray
grestore
gsave
stroke
grestore
4 3 m
4 3 m
3.87285 2.87285 m
1 setlinejoin
 newpath 4 3 0.127155 0 360 arc
closepath
gsave
0 setgray
fill
0 setgray
grestore
gsave
stroke
grestore
0 setlinejoin
0.05 setlinewidth
0 setgray
4 3 m
4.15 3.15 m
4.10967 3.15 m
4.10967 3.15 m
(1) s
4.29132 3.15 m
(8) s
4.15 3.15 m
4.15 3.15 m
4 3 m
4 3 m
4 3 m
5.89737 3 l
stroke
 newpath 5.525 2.89861 moveto
5.525 2.89861 moveto
5.90341 3 l
5.525 3.10139 l
closepath
gsave
0 setgray
fill
0 setgray
grestore
gsave
stroke
grestore
6 3 m
6 3 m
5.87285 2.87285 m
1 setlinejoin
 newpath 6 3 0.127155 0 360 arc
closepath
gsave
0 setgray
fill
0 setgray
grestore
gsave
stroke
grestore
0 setlinejoin
0.05 setlinewidth
0 setgray
6 3 m
6.15 3.15 m
6.10967 3.15 m
6.10967 3.15 m
(1) s
6.29132 3.15 m
(9) s
6.15 3.15 m
6.15 3.15 m
6 3 m
6 3 m
6 3 m
7.89737 3 l
stroke
 newpath 7.525 2.89861 moveto
7.525 2.89861 moveto
7.90341 3 l
7.525 3.10139 l
closepath
gsave
0 setgray
fill
0 setgray
grestore
gsave
stroke
grestore
8 3 m
8 3 m
7.87285 2.87285 m
1 setlinejoin
 newpath 8 3 0.127155 0 360 arc
closepath
gsave
0 setgray
fill
0 setgray
grestore
gsave
stroke
grestore
0 setlinejoin
0.05 setlinewidth
0 setgray
8 3 m
8.15 3.15 m
8.1391 3.15 m
8.1391 3.15 m
(2) s
8.32075 3.15 m
(0) s
8.15 3.15 m
8.15 3.15 m
8 3 m
8 3 m
8 3 m
9.89737 3 l
stroke
 newpath 9.525 2.89861 moveto
9.525 2.89861 moveto
9.90341 3 l
9.525 3.10139 l
closepath
gsave
0 setgray
fill
0 setgray
grestore
gsave
stroke
grestore
10 3 m
10 3 m
9.87285 2.87285 m
1 setlinejoin
 newpath 10 3 0.127155 0 360 arc
closepath
gsave
0 setgray
fill
0 setgray
grestore
gsave
stroke
grestore
0 setlinejoin
0.05 setlinewidth
0 setgray
10 3 m
10.15 3.15 m
10.1391 3.15 m
10.1391 3.15 m
(2) s
10.3208 3.15 m
(1) s
10.15 3.15 m
10.15 3.15 m
10 3 m
10 3 m
10 3 m
11.8974 3 l
stroke
 newpath 11.525 2.89861 moveto
11.525 2.89861 moveto
11.9034 3 l
11.525 3.10139 l
closepath
gsave
0 setgray
fill
0 setgray
grestore
gsave
stroke
grestore
12 3 m
12 3 m
11.8728 2.87285 m
1 setlinejoin
 newpath 12 3 0.127155 0 360 arc
closepath
gsave
0 setgray
fill
0 setgray
grestore
gsave
stroke
grestore
0 setlinejoin
0.05 setlinewidth
0 setgray
12 3 m
12.15 3.15 m
12.1391 3.15 m
12.1391 3.15 m
(2) s
12.3208 3.15 m
(2) s
12.15 3.15 m
12.15 3.15 m
12 3 m
12 3 m
12 3 m
13.8974 3 l
stroke
 newpath 13.525 2.89861 moveto
13.525 2.89861 moveto
13.9034 3 l
13.525 3.10139 l
closepath
gsave
0 setgray
fill
0 setgray
grestore
gsave
stroke
grestore
14 3 m
14 3 m
13.8728 2.87285 m
1 setlinejoin
 newpath 14 3 0.127155 0 360 arc
closepath
gsave
0 setgray
fill
0 setgray
grestore
gsave
stroke
grestore
0 setlinejoin
0.05 setlinewidth
0 setgray
14 3 m
14.15 3.15 m
14.1391 3.15 m
14.1391 3.15 m
(2) s
14.3208 3.15 m
(3) s
14.15 3.15 m
14.15 3.15 m
14 3 m
14 3 m
14 3 m
15.8974 3 l
stroke
 newpath 15.525 2.89861 moveto
15.525 2.89861 moveto
15.9034 3 l
15.525 3.10139 l
closepath
gsave
0 setgray
fill
0 setgray
grestore
gsave
stroke
grestore
16 3 m
16 3 m
15.8728 2.87285 m
1 setlinejoin
 newpath 16 3 0.127155 0 360 arc
closepath
gsave
0 setgray
fill
0 setgray
grestore
gsave
stroke
grestore
0 setlinejoin
0.05 setlinewidth
0 setgray
16 3 m
16.15 3.15 m
16.1391 3.15 m
16.1391 3.15 m
(2) s
16.3208 3.15 m
(4) s
16.15 3.15 m
16.15 3.15 m
16 3 m
16 3 m
16 3 m
2.10237 3.99269 l
stroke
 newpath 2.48102 4.06729 moveto
2.48102 4.06729 moveto
2.09635 3.99312 l
2.46657 3.86502 l
closepath
gsave
0 setgray
fill
0 setgray
grestore
gsave
stroke
grestore
2 4 m
2 4 m
1.87285 3.87285 m
1 setlinejoin
 newpath 2 4 0.127155 0 360 arc
closepath
gsave
0 setgray
fill
0 setgray
grestore
gsave
stroke
grestore
0 setlinejoin
0.05 setlinewidth
0 setgray
2 4 m
2.15 4.15 m
2.1391 4.15 m
2.1391 4.15 m
(2) s
2.32075 4.15 m
(5) s
2.15 4.15 m
2.15 4.15 m
2 4 m
2 4 m
2 4 m
3.89737 4 l
stroke
 newpath 3.525 3.89861 moveto
3.525 3.89861 moveto
3.90341 4 l
3.525 4.10139 l
closepath
gsave
0 setgray
fill
0 setgray
grestore
gsave
stroke
grestore
4 4 m
4 4 m
3.87285 3.87285 m
1 setlinejoin
 newpath 4 4 0.127155 0 360 arc
closepath
gsave
0 setgray
fill
0 setgray
grestore
gsave
stroke
grestore
0 setlinejoin
0.05 setlinewidth
0 setgray
4 4 m
4.15 4.15 m
4.1391 4.15 m
4.1391 4.15 m
(2) s
4.32075 4.15 m
(6) s
4.15 4.15 m
4.15 4.15 m
4 4 m
4 4 m
4 4 m
5.89737 4 l
stroke
 newpath 5.525 3.89861 moveto
5.525 3.89861 moveto
5.90341 4 l
5.525 4.10139 l
closepath
gsave
0 setgray
fill
0 setgray
grestore
gsave
stroke
grestore
6 4 m
6 4 m
5.87285 3.87285 m
1 setlinejoin
 newpath 6 4 0.127155 0 360 arc
closepath
gsave
0 setgray
fill
0 setgray
grestore
gsave
stroke
grestore
0 setlinejoin
0.05 setlinewidth
0 setgray
6 4 m
6.15 4.15 m
6.1391 4.15 m
6.1391 4.15 m
(2) s
6.32075 4.15 m
(7) s
6.15 4.15 m
6.15 4.15 m
6 4 m
6 4 m
6 4 m
7.89737 4 l
stroke
 newpath 7.525 3.89861 moveto
7.525 3.89861 moveto
7.90341 4 l
7.525 4.10139 l
closepath
gsave
0 setgray
fill
0 setgray
grestore
gsave
stroke
grestore
8 4 m
8 4 m
7.87285 3.87285 m
1 setlinejoin
 newpath 8 4 0.127155 0 360 arc
closepath
gsave
0 setgray
fill
0 setgray
grestore
gsave
stroke
grestore
0 setlinejoin
0.05 setlinewidth
0 setgray
8 4 m
8.15 4.15 m
8.1391 4.15 m
8.1391 4.15 m
(2) s
8.32075 4.15 m
(8) s
8.15 4.15 m
8.15 4.15 m
8 4 m
8 4 m
8 4 m
9.89737 4 l
stroke
 newpath 9.525 3.89861 moveto
9.525 3.89861 moveto
9.90341 4 l
9.525 4.10139 l
closepath
gsave
0 setgray
fill
0 setgray
grestore
gsave
stroke
grestore
10 4 m
10 4 m
9.87285 3.87285 m
1 setlinejoin
 newpath 10 4 0.127155 0 360 arc
closepath
gsave
0 setgray
fill
0 setgray
grestore
gsave
stroke
grestore
0 setlinejoin
0.05 setlinewidth
0 setgray
10 4 m
10.15 4.15 m
10.1391 4.15 m
10.1391 4.15 m
(2) s
10.3208 4.15 m
(9) s
10.15 4.15 m
10.15 4.15 m
10 4 m
10 4 m
10 4 m
11.8974 4 l
stroke
 newpath 11.525 3.89861 moveto
11.525 3.89861 moveto
11.9034 4 l
11.525 4.10139 l
closepath
gsave
0 setgray
fill
0 setgray
grestore
gsave
stroke
grestore
12 4 m
12 4 m
11.8728 3.87285 m
1 setlinejoin
 newpath 12 4 0.127155 0 360 arc
closepath
gsave
0 setgray
fill
0 setgray
grestore
gsave
stroke
grestore
0 setlinejoin
0.05 setlinewidth
0 setgray
12 4 m
12.15 4.15 m
12.1344 4.15 m
12.1344 4.15 m
(3) s
12.316 4.15 m
(0) s
12.15 4.15 m
12.15 4.15 m
12 4 m
12 4 m
12 4 m
13.8974 4 l
stroke
 newpath 13.525 3.89861 moveto
13.525 3.89861 moveto
13.9034 4 l
13.525 4.10139 l
closepath
gsave
0 setgray
fill
0 setgray
grestore
gsave
stroke
grestore
14 4 m
14 4 m
13.8728 3.87285 m
1 setlinejoin
 newpath 14 4 0.127155 0 360 arc
closepath
gsave
0 setgray
fill
0 setgray
grestore
gsave
stroke
grestore
0 setlinejoin
0.05 setlinewidth
0 setgray
14 4 m
14.15 4.15 m
14.1344 4.15 m
14.1344 4.15 m
(3) s
14.316 4.15 m
(1) s
14.15 4.15 m
14.15 4.15 m
14 4 m
14 4 m
14 4 m
15.8974 4 l
stroke
 newpath 15.525 3.89861 moveto
15.525 3.89861 moveto
15.9034 4 l
15.525 4.10139 l
closepath
gsave
0 setgray
fill
0 setgray
grestore
gsave
stroke
grestore
16 4 m
16 4 m
15.8728 3.87285 m
1 setlinejoin
 newpath 16 4 0.127155 0 360 arc
closepath
gsave
0 setgray
fill
0 setgray
grestore
gsave
stroke
grestore
0 setlinejoin
0.05 setlinewidth
0 setgray
16 4 m
16.15 4.15 m
16.1344 4.15 m
16.1344 4.15 m
(3) s
16.316 4.15 m
(2) s
16.15 4.15 m
16.15 4.15 m
16 4 m
16 4 m
16 4 m
2.10237 4.99269 l
stroke
 newpath 2.48102 5.06729 moveto
2.48102 5.06729 moveto
2.09635 4.99312 l
2.46657 4.86502 l
closepath
gsave
0 setgray
fill
0 setgray
grestore
gsave
stroke
grestore
2 5 m
2 5 m
1.87285 4.87285 m
1 setlinejoin
 newpath 2 5 0.127155 0 360 arc
closepath
gsave
0 setgray
fill
0 setgray
grestore
gsave
stroke
grestore
0 setlinejoin
0.05 setlinewidth
0 setgray
2 5 m
2.15 5.15 m
2.13438 5.15 m
2.13438 5.15 m
(3) s
2.31603 5.15 m
(3) s
2.15 5.15 m
2.15 5.15 m
2 5 m
2 5 m
2 5 m
3.89737 5 l
stroke
 newpath 3.525 4.89861 moveto
3.525 4.89861 moveto
3.90341 5 l
3.525 5.10139 l
closepath
gsave
0 setgray
fill
0 setgray
grestore
gsave
stroke
grestore
4 5 m
4 5 m
3.87285 4.87285 m
1 setlinejoin
 newpath 4 5 0.127155 0 360 arc
closepath
gsave
0 setgray
fill
0 setgray
grestore
gsave
stroke
grestore
0 setlinejoin
0.05 setlinewidth
0 setgray
4 5 m
4.15 5.15 m
4.13438 5.15 m
4.13438 5.15 m
(3) s
4.31603 5.15 m
(4) s
4.15 5.15 m
4.15 5.15 m
4 5 m
4 5 m
4 5 m
5.89737 5 l
stroke
 newpath 5.525 4.89861 moveto
5.525 4.89861 moveto
5.90341 5 l
5.525 5.10139 l
closepath
gsave
0 setgray
fill
0 setgray
grestore
gsave
stroke
grestore
6 5 m
6 5 m
5.87285 4.87285 m
1 setlinejoin
 newpath 6 5 0.127155 0 360 arc
closepath
gsave
0 setgray
fill
0 setgray
grestore
gsave
stroke
grestore
0 setlinejoin
0.05 setlinewidth
0 setgray
6 5 m
6.15 5.15 m
6.13438 5.15 m
6.13438 5.15 m
(3) s
6.31603 5.15 m
(5) s
6.15 5.15 m
6.15 5.15 m
6 5 m
6 5 m
6 5 m
7.89737 5 l
stroke
 newpath 7.525 4.89861 moveto
7.525 4.89861 moveto
7.90341 5 l
7.525 5.10139 l
closepath
gsave
0 setgray
fill
0 setgray
grestore
gsave
stroke
grestore
8 5 m
8 5 m
7.87285 4.87285 m
1 setlinejoin
 newpath 8 5 0.127155 0 360 arc
closepath
gsave
0 setgray
fill
0 setgray
grestore
gsave
stroke
grestore
0 setlinejoin
0.05 setlinewidth
0 setgray
8 5 m
8.15 5.15 m
8.13438 5.15 m
8.13438 5.15 m
(3) s
8.31603 5.15 m
(6) s
8.15 5.15 m
8.15 5.15 m
8 5 m
8 5 m
8 5 m
9.89737 5 l
stroke
 newpath 9.525 4.89861 moveto
9.525 4.89861 moveto
9.90341 5 l
9.525 5.10139 l
closepath
gsave
0 setgray
fill
0 setgray
grestore
gsave
stroke
grestore
10 5 m
10 5 m
9.87285 4.87285 m
1 setlinejoin
 newpath 10 5 0.127155 0 360 arc
closepath
gsave
0 setgray
fill
0 setgray
grestore
gsave
stroke
grestore
0 setlinejoin
0.05 setlinewidth
0 setgray
10 5 m
10.15 5.15 m
10.1344 5.15 m
10.1344 5.15 m
(3) s
10.316 5.15 m
(7) s
10.15 5.15 m
10.15 5.15 m
10 5 m
10 5 m
10 5 m
11.8974 5 l
stroke
 newpath 11.525 4.89861 moveto
11.525 4.89861 moveto
11.9034 5 l
11.525 5.10139 l
closepath
gsave
0 setgray
fill
0 setgray
grestore
gsave
stroke
grestore
12 5 m
12 5 m
11.8728 4.87285 m
1 setlinejoin
 newpath 12 5 0.127155 0 360 arc
closepath
gsave
0 setgray
fill
0 setgray
grestore
gsave
stroke
grestore
0 setlinejoin
0.05 setlinewidth
0 setgray
12 5 m
12.15 5.15 m
12.1344 5.15 m
12.1344 5.15 m
(3) s
12.316 5.15 m
(8) s
12.15 5.15 m
12.15 5.15 m
12 5 m
12 5 m
12 5 m
13.8974 5 l
stroke
 newpath 13.525 4.89861 moveto
13.525 4.89861 moveto
13.9034 5 l
13.525 5.10139 l
closepath
gsave
0 setgray
fill
0 setgray
grestore
gsave
stroke
grestore
14 5 m
14 5 m
13.8728 4.87285 m
1 setlinejoin
 newpath 14 5 0.127155 0 360 arc
closepath
gsave
0 setgray
fill
0 setgray
grestore
gsave
stroke
grestore
0 setlinejoin
0.05 setlinewidth
0 setgray
14 5 m
14.15 5.15 m
14.1344 5.15 m
14.1344 5.15 m
(3) s
14.316 5.15 m
(9) s
14.15 5.15 m
14.15 5.15 m
14 5 m
14 5 m
14 5 m
15.8974 5 l
stroke
 newpath 15.525 4.89861 moveto
15.525 4.89861 moveto
15.9034 5 l
15.525 5.10139 l
closepath
gsave
0 setgray
fill
0 setgray
grestore
gsave
stroke
grestore
16 5 m
16 5 m
15.8728 4.87285 m
1 setlinejoin
 newpath 16 5 0.127155 0 360 arc
closepath
gsave
0 setgray
fill
0 setgray
grestore
gsave
stroke
grestore
0 setlinejoin
0.05 setlinewidth
0 setgray
16 5 m
16.15 5.15 m
16.1456 5.15 m
16.1456 5.15 m
(4) s
16.3273 5.15 m
(0) s
16.15 5.15 m
16.15 5.15 m
16 5 m
16 5 m
16 5 m
2.10237 5.99269 l
stroke
 newpath 2.48102 6.06729 moveto
2.48102 6.06729 moveto
2.09635 5.99312 l
2.46657 5.86502 l
closepath
gsave
0 setgray
fill
0 setgray
grestore
gsave
stroke
grestore
2 6 m
2 6 m
1.87285 5.87285 m
1 setlinejoin
 newpath 2 6 0.127155 0 360 arc
closepath
gsave
0 setgray
fill
0 setgray
grestore
gsave
stroke
grestore
0 setlinejoin
0.05 setlinewidth
0 setgray
2 6 m
2.15 6.15 m
2.14564 6.15 m
2.14564 6.15 m
(4) s
2.32729 6.15 m
(1) s
2.15 6.15 m
2.15 6.15 m
2 6 m
2 6 m
2 6 m
3.89737 6 l
stroke
 newpath 3.525 5.89861 moveto
3.525 5.89861 moveto
3.90341 6 l
3.525 6.10139 l
closepath
gsave
0 setgray
fill
0 setgray
grestore
gsave
stroke
grestore
4 6 m
4 6 m
3.87285 5.87285 m
1 setlinejoin
 newpath 4 6 0.127155 0 360 arc
closepath
gsave
0 setgray
fill
0 setgray
grestore
gsave
stroke
grestore
0 setlinejoin
0.05 setlinewidth
0 setgray
4 6 m
4.15 6.15 m
4.14564 6.15 m
4.14564 6.15 m
(4) s
4.32729 6.15 m
(2) s
4.15 6.15 m
4.15 6.15 m
4 6 m
4 6 m
4 6 m
5.89737 6 l
stroke
 newpath 5.525 5.89861 moveto
5.525 5.89861 moveto
5.90341 6 l
5.525 6.10139 l
closepath
gsave
0 setgray
fill
0 setgray
grestore
gsave
stroke
grestore
6 6 m
6 6 m
5.87285 5.87285 m
1 setlinejoin
 newpath 6 6 0.127155 0 360 arc
closepath
gsave
0 setgray
fill
0 setgray
grestore
gsave
stroke
grestore
0 setlinejoin
0.05 setlinewidth
0 setgray
6 6 m
6.15 6.15 m
6.14564 6.15 m
6.14564 6.15 m
(4) s
6.32729 6.15 m
(3) s
6.15 6.15 m
6.15 6.15 m
6 6 m
6 6 m
6 6 m
7.89737 6 l
stroke
 newpath 7.525 5.89861 moveto
7.525 5.89861 moveto
7.90341 6 l
7.525 6.10139 l
closepath
gsave
0 setgray
fill
0 setgray
grestore
gsave
stroke
grestore
8 6 m
8 6 m
7.87285 5.87285 m
1 setlinejoin
 newpath 8 6 0.127155 0 360 arc
closepath
gsave
0 setgray
fill
0 setgray
grestore
gsave
stroke
grestore
0 setlinejoin
0.05 setlinewidth
0 setgray
8 6 m
8.15 6.15 m
8.14564 6.15 m
8.14564 6.15 m
(4) s
8.32729 6.15 m
(4) s
8.15 6.15 m
8.15 6.15 m
8 6 m
8 6 m
8 6 m
9.89737 6 l
stroke
 newpath 9.525 5.89861 moveto
9.525 5.89861 moveto
9.90341 6 l
9.525 6.10139 l
closepath
gsave
0 setgray
fill
0 setgray
grestore
gsave
stroke
grestore
10 6 m
10 6 m
9.87285 5.87285 m
1 setlinejoin
 newpath 10 6 0.127155 0 360 arc
closepath
gsave
0 setgray
fill
0 setgray
grestore
gsave
stroke
grestore
0 setlinejoin
0.05 setlinewidth
0 setgray
10 6 m
10.15 6.15 m
10.1456 6.15 m
10.1456 6.15 m
(4) s
10.3273 6.15 m
(5) s
10.15 6.15 m
10.15 6.15 m
10 6 m
10 6 m
10 6 m
11.8974 6 l
stroke
 newpath 11.525 5.89861 moveto
11.525 5.89861 moveto
11.9034 6 l
11.525 6.10139 l
closepath
gsave
0 setgray
fill
0 setgray
grestore
gsave
stroke
grestore
12 6 m
12 6 m
11.8728 5.87285 m
1 setlinejoin
 newpath 12 6 0.127155 0 360 arc
closepath
gsave
0 setgray
fill
0 setgray
grestore
gsave
stroke
grestore
0 setlinejoin
0.05 setlinewidth
0 setgray
12 6 m
12.15 6.15 m
12.1456 6.15 m
12.1456 6.15 m
(4) s
12.3273 6.15 m
(6) s
12.15 6.15 m
12.15 6.15 m
12 6 m
12 6 m
12 6 m
13.8974 6 l
stroke
 newpath 13.525 5.89861 moveto
13.525 5.89861 moveto
13.9034 6 l
13.525 6.10139 l
closepath
gsave
0 setgray
fill
0 setgray
grestore
gsave
stroke
grestore
14 6 m
14 6 m
13.8728 5.87285 m
1 setlinejoin
 newpath 14 6 0.127155 0 360 arc
closepath
gsave
0 setgray
fill
0 setgray
grestore
gsave
stroke
grestore
0 setlinejoin
0.05 setlinewidth
0 setgray
14 6 m
14.15 6.15 m
14.1456 6.15 m
14.1456 6.15 m
(4) s
14.3273 6.15 m
(7) s
14.15 6.15 m
14.15 6.15 m
14 6 m
14 6 m
14 6 m
15.8974 6 l
stroke
 newpath 15.525 5.89861 moveto
15.525 5.89861 moveto
15.9034 6 l
15.525 6.10139 l
closepath
gsave
0 setgray
fill
0 setgray
grestore
gsave
stroke
grestore
16 6 m
16 6 m
15.8728 5.87285 m
1 setlinejoin
 newpath 16 6 0.127155 0 360 arc
closepath
gsave
0 setgray
fill
0 setgray
grestore
gsave
stroke
grestore
0 setlinejoin
0.05 setlinewidth
0 setgray
16 6 m
16.15 6.15 m
16.1456 6.15 m
16.1456 6.15 m
(4) s
16.3273 6.15 m
(8) s
16.15 6.15 m
16.15 6.15 m
16 6 m
16 6 m
16 6 m
2.10237 6.99269 l
stroke
 newpath 2.48102 7.06729 moveto
2.48102 7.06729 moveto
2.09635 6.99312 l
2.46657 6.86502 l
closepath
gsave
0 setgray
fill
0 setgray
grestore
gsave
stroke
grestore
2 7 m
2 7 m
1.87285 6.87285 m
1 setlinejoin
 newpath 2 7 0.127155 0 360 arc
closepath
gsave
0 setgray
fill
0 setgray
grestore
gsave
stroke
grestore
0 setlinejoin
0.05 setlinewidth
0 setgray
2 7 m
2.15 7.15 m
2.14564 7.15 m
2.14564 7.15 m
(4) s
2.32729 7.15 m
(9) s
2.15 7.15 m
2.15 7.15 m
2 7 m
2 7 m
2 7 m
3.89737 7 l
stroke
 newpath 3.525 6.89861 moveto
3.525 6.89861 moveto
3.90341 7 l
3.525 7.10139 l
closepath
gsave
0 setgray
fill
0 setgray
grestore
gsave
stroke
grestore
4 7 m
4 7 m
3.87285 6.87285 m
1 setlinejoin
 newpath 4 7 0.127155 0 360 arc
closepath
gsave
0 setgray
fill
0 setgray
grestore
gsave
stroke
grestore
0 setlinejoin
0.05 setlinewidth
0 setgray
4 7 m
4.15 7.15 m
4.13837 7.15 m
4.13837 7.15 m
(5) s
4.32002 7.15 m
(0) s
4.15 7.15 m
4.15 7.15 m
4 7 m
4 7 m
4 7 m
5.89737 7 l
stroke
 newpath 5.525 6.89861 moveto
5.525 6.89861 moveto
5.90341 7 l
5.525 7.10139 l
closepath
gsave
0 setgray
fill
0 setgray
grestore
gsave
stroke
grestore
6 7 m
6 7 m
5.87285 6.87285 m
1 setlinejoin
 newpath 6 7 0.127155 0 360 arc
closepath
gsave
0 setgray
fill
0 setgray
grestore
gsave
stroke
grestore
0 setlinejoin
0.05 setlinewidth
0 setgray
6 7 m
6.15 7.15 m
6.13837 7.15 m
6.13837 7.15 m
(5) s
6.32002 7.15 m
(1) s
6.15 7.15 m
6.15 7.15 m
6 7 m
6 7 m
6 7 m
7.89737 7 l
stroke
 newpath 7.525 6.89861 moveto
7.525 6.89861 moveto
7.90341 7 l
7.525 7.10139 l
closepath
gsave
0 setgray
fill
0 setgray
grestore
gsave
stroke
grestore
8 7 m
8 7 m
7.87285 6.87285 m
1 setlinejoin
 newpath 8 7 0.127155 0 360 arc
closepath
gsave
0 setgray
fill
0 setgray
grestore
gsave
stroke
grestore
0 setlinejoin
0.05 setlinewidth
0 setgray
8 7 m
8.15 7.15 m
8.13837 7.15 m
8.13837 7.15 m
(5) s
8.32002 7.15 m
(2) s
8.15 7.15 m
8.15 7.15 m
8 7 m
8 7 m
8 7 m
9.89737 7 l
stroke
 newpath 9.525 6.89861 moveto
9.525 6.89861 moveto
9.90341 7 l
9.525 7.10139 l
closepath
gsave
0 setgray
fill
0 setgray
grestore
gsave
stroke
grestore
10 7 m
10 7 m
9.87285 6.87285 m
1 setlinejoin
 newpath 10 7 0.127155 0 360 arc
closepath
gsave
0 setgray
fill
0 setgray
grestore
gsave
stroke
grestore
0 setlinejoin
0.05 setlinewidth
0 setgray
10 7 m
10.15 7.15 m
10.1384 7.15 m
10.1384 7.15 m
(5) s
10.32 7.15 m
(3) s
10.15 7.15 m
10.15 7.15 m
10 7 m
10 7 m
10 7 m
11.8974 7 l
stroke
 newpath 11.525 6.89861 moveto
11.525 6.89861 moveto
11.9034 7 l
11.525 7.10139 l
closepath
gsave
0 setgray
fill
0 setgray
grestore
gsave
stroke
grestore
12 7 m
12 7 m
11.8728 6.87285 m
1 setlinejoin
 newpath 12 7 0.127155 0 360 arc
closepath
gsave
0 setgray
fill
0 setgray
grestore
gsave
stroke
grestore
0 setlinejoin
0.05 setlinewidth
0 setgray
12 7 m
12.15 7.15 m
12.1384 7.15 m
12.1384 7.15 m
(5) s
12.32 7.15 m
(4) s
12.15 7.15 m
12.15 7.15 m
12 7 m
12 7 m
12 7 m
13.8974 7 l
stroke
 newpath 13.525 6.89861 moveto
13.525 6.89861 moveto
13.9034 7 l
13.525 7.10139 l
closepath
gsave
0 setgray
fill
0 setgray
grestore
gsave
stroke
grestore
14 7 m
14 7 m
13.8728 6.87285 m
1 setlinejoin
 newpath 14 7 0.127155 0 360 arc
closepath
gsave
0 setgray
fill
0 setgray
grestore
gsave
stroke
grestore
0 setlinejoin
0.05 setlinewidth
0 setgray
14 7 m
14.15 7.15 m
14.1384 7.15 m
14.1384 7.15 m
(5) s
14.32 7.15 m
(5) s
14.15 7.15 m
14.15 7.15 m
14 7 m
14 7 m
14 7 m
15.8974 7 l
stroke
 newpath 15.525 6.89861 moveto
15.525 6.89861 moveto
15.9034 7 l
15.525 7.10139 l
closepath
gsave
0 setgray
fill
0 setgray
grestore
gsave
stroke
grestore
16 7 m
16 7 m
15.8728 6.87285 m
1 setlinejoin
 newpath 16 7 0.127155 0 360 arc
closepath
gsave
0 setgray
fill
0 setgray
grestore
gsave
stroke
grestore
0 setlinejoin
0.05 setlinewidth
0 setgray
16 7 m
16.15 7.15 m
16.1384 7.15 m
16.1384 7.15 m
(5) s
16.32 7.15 m
(6) s
16.15 7.15 m
16.15 7.15 m
16 7 m
16 7 m
16 7 m
2.10237 7.99269 l
stroke
 newpath 2.48102 8.06729 moveto
2.48102 8.06729 moveto
2.09635 7.99312 l
2.46657 7.86502 l
closepath
gsave
0 setgray
fill
0 setgray
grestore
gsave
stroke
grestore
2 8 m
2 8 m
1.87285 7.87285 m
1 setlinejoin
 newpath 2 8 0.127155 0 360 arc
closepath
gsave
0 setgray
fill
0 setgray
grestore
gsave
stroke
grestore
0 setlinejoin
0.05 setlinewidth
0 setgray
2 8 m
2.15 8.15 m
2.13837 8.15 m
2.13837 8.15 m
(5) s
2.32002 8.15 m
(7) s
2.15 8.15 m
2.15 8.15 m
2 8 m
2 8 m
2 8 m
3.89737 8 l
stroke
 newpath 3.525 7.89861 moveto
3.525 7.89861 moveto
3.90341 8 l
3.525 8.10139 l
closepath
gsave
0 setgray
fill
0 setgray
grestore
gsave
stroke
grestore
4 8 m
4 8 m
3.87285 7.87285 m
1 setlinejoin
 newpath 4 8 0.127155 0 360 arc
closepath
gsave
0 setgray
fill
0 setgray
grestore
gsave
stroke
grestore
0 setlinejoin
0.05 setlinewidth
0 setgray
4 8 m
4.15 8.15 m
4.13837 8.15 m
4.13837 8.15 m
(5) s
4.32002 8.15 m
(8) s
4.15 8.15 m
4.15 8.15 m
4 8 m
4 8 m
4 8 m
5.89737 8 l
stroke
 newpath 5.525 7.89861 moveto
5.525 7.89861 moveto
5.90341 8 l
5.525 8.10139 l
closepath
gsave
0 setgray
fill
0 setgray
grestore
gsave
stroke
grestore
6 8 m
6 8 m
5.87285 7.87285 m
1 setlinejoin
 newpath 6 8 0.127155 0 360 arc
closepath
gsave
0 setgray
fill
0 setgray
grestore
gsave
stroke
grestore
0 setlinejoin
0.05 setlinewidth
0 setgray
6 8 m
6.15 8.15 m
6.13837 8.15 m
6.13837 8.15 m
(5) s
6.32002 8.15 m
(9) s
6.15 8.15 m
6.15 8.15 m
6 8 m
6 8 m
6 8 m
7.89737 8 l
stroke
 newpath 7.525 7.89861 moveto
7.525 7.89861 moveto
7.90341 8 l
7.525 8.10139 l
closepath
gsave
0 setgray
fill
0 setgray
grestore
gsave
stroke
grestore
8 8 m
8 8 m
7.87285 7.87285 m
1 setlinejoin
 newpath 8 8 0.127155 0 360 arc
closepath
gsave
0 setgray
fill
0 setgray
grestore
gsave
stroke
grestore
0 setlinejoin
0.05 setlinewidth
0 setgray
8 8 m
8.15 8.15 m
8.13765 8.15 m
8.13765 8.15 m
(6) s
8.3193 8.15 m
(0) s
8.15 8.15 m
8.15 8.15 m
8 8 m
8 8 m
8 8 m
9.89737 8 l
stroke
 newpath 9.525 7.89861 moveto
9.525 7.89861 moveto
9.90341 8 l
9.525 8.10139 l
closepath
gsave
0 setgray
fill
0 setgray
grestore
gsave
stroke
grestore
10 8 m
10 8 m
9.87285 7.87285 m
1 setlinejoin
 newpath 10 8 0.127155 0 360 arc
closepath
gsave
0 setgray
fill
0 setgray
grestore
gsave
stroke
grestore
0 setlinejoin
0.05 setlinewidth
0 setgray
10 8 m
10.15 8.15 m
10.1376 8.15 m
10.1376 8.15 m
(6) s
10.3193 8.15 m
(1) s
10.15 8.15 m
10.15 8.15 m
10 8 m
10 8 m
10 8 m
11.8974 8 l
stroke
 newpath 11.525 7.89861 moveto
11.525 7.89861 moveto
11.9034 8 l
11.525 8.10139 l
closepath
gsave
0 setgray
fill
0 setgray
grestore
gsave
stroke
grestore
12 8 m
12 8 m
11.8728 7.87285 m
1 setlinejoin
 newpath 12 8 0.127155 0 360 arc
closepath
gsave
0 setgray
fill
0 setgray
grestore
gsave
stroke
grestore
0 setlinejoin
0.05 setlinewidth
0 setgray
12 8 m
12.15 8.15 m
12.1376 8.15 m
12.1376 8.15 m
(6) s
12.3193 8.15 m
(2) s
12.15 8.15 m
12.15 8.15 m
12 8 m
12 8 m
12 8 m
13.8974 8 l
stroke
 newpath 13.525 7.89861 moveto
13.525 7.89861 moveto
13.9034 8 l
13.525 8.10139 l
closepath
gsave
0 setgray
fill
0 setgray
grestore
gsave
stroke
grestore
14 8 m
14 8 m
13.8728 7.87285 m
1 setlinejoin
 newpath 14 8 0.127155 0 360 arc
closepath
gsave
0 setgray
fill
0 setgray
grestore
gsave
stroke
grestore
0 setlinejoin
0.05 setlinewidth
0 setgray
14 8 m
14.15 8.15 m
14.1376 8.15 m
14.1376 8.15 m
(6) s
14.3193 8.15 m
(3) s
14.15 8.15 m
14.15 8.15 m
14 8 m
14 8 m
14 8 m
15.8974 8 l
stroke
 newpath 15.525 7.89861 moveto
15.525 7.89861 moveto
15.9034 8 l
15.525 8.10139 l
closepath
gsave
0 setgray
fill
0 setgray
grestore
gsave
stroke
grestore
16 8 m
16 8 m
15.8728 7.87285 m
1 setlinejoin
 newpath 16 8 0.127155 0 360 arc
closepath
gsave
0 setgray
fill
0 setgray
grestore
gsave
stroke
grestore
0 setlinejoin
0.05 setlinewidth
0 setgray
16 8 m
16.15 8.15 m
16.1376 8.15 m
16.1376 8.15 m
(6) s
16.3193 8.15 m
(4) s
16.15 8.15 m
16.15 8.15 m
16 8 m
16 8 m
16 8 m
2.10237 8.99269 l
stroke
 newpath 2.48102 9.06729 moveto
2.48102 9.06729 moveto
2.09635 8.99312 l
2.46657 8.86502 l
closepath
gsave
0 setgray
fill
0 setgray
grestore
gsave
stroke
grestore
2 9 m
2 9 m
1.87285 8.87285 m
1 setlinejoin
 newpath 2 9 0.127155 0 360 arc
closepath
gsave
0 setgray
fill
0 setgray
grestore
gsave
stroke
grestore
0 setlinejoin
0.05 setlinewidth
0 setgray
2 9 m
2.15 9.15 m
2.13765 9.15 m
2.13765 9.15 m
(6) s
2.3193 9.15 m
(5) s
2.15 9.15 m
2.15 9.15 m
2 9 m
2 9 m
2 9 m
3.89737 9 l
stroke
 newpath 3.525 8.89861 moveto
3.525 8.89861 moveto
3.90341 9 l
3.525 9.10139 l
closepath
gsave
0 setgray
fill
0 setgray
grestore
gsave
stroke
grestore
4 9 m
4 9 m
3.87285 8.87285 m
1 setlinejoin
 newpath 4 9 0.127155 0 360 arc
closepath
gsave
0 setgray
fill
0 setgray
grestore
gsave
stroke
grestore
0 setlinejoin
0.05 setlinewidth
0 setgray
4 9 m
4.15 9.15 m
4.13765 9.15 m
4.13765 9.15 m
(6) s
4.3193 9.15 m
(6) s
4.15 9.15 m
4.15 9.15 m
4 9 m
4 9 m
4 9 m
5.89737 9 l
stroke
 newpath 5.525 8.89861 moveto
5.525 8.89861 moveto
5.90341 9 l
5.525 9.10139 l
closepath
gsave
0 setgray
fill
0 setgray
grestore
gsave
stroke
grestore
6 9 m
6 9 m
5.87285 8.87285 m
1 setlinejoin
 newpath 6 9 0.127155 0 360 arc
closepath
gsave
0 setgray
fill
0 setgray
grestore
gsave
stroke
grestore
0 setlinejoin
0.05 setlinewidth
0 setgray
6 9 m
6.15 9.15 m
6.13765 9.15 m
6.13765 9.15 m
(6) s
6.3193 9.15 m
(7) s
6.15 9.15 m
6.15 9.15 m
6 9 m
6 9 m
6 9 m
7.89737 9 l
stroke
 newpath 7.525 8.89861 moveto
7.525 8.89861 moveto
7.90341 9 l
7.525 9.10139 l
closepath
gsave
0 setgray
fill
0 setgray
grestore
gsave
stroke
grestore
8 9 m
8 9 m
7.87285 8.87285 m
1 setlinejoin
 newpath 8 9 0.127155 0 360 arc
closepath
gsave
0 setgray
fill
0 setgray
grestore
gsave
stroke
grestore
0 setlinejoin
0.05 setlinewidth
0 setgray
8 9 m
8.15 9.15 m
8.13765 9.15 m
8.13765 9.15 m
(6) s
8.3193 9.15 m
(8) s
8.15 9.15 m
8.15 9.15 m
8 9 m
8 9 m
8 9 m
9.89737 9 l
stroke
 newpath 9.525 8.89861 moveto
9.525 8.89861 moveto
9.90341 9 l
9.525 9.10139 l
closepath
gsave
0 setgray
fill
0 setgray
grestore
gsave
stroke
grestore
10 9 m
10 9 m
9.87285 8.87285 m
1 setlinejoin
 newpath 10 9 0.127155 0 360 arc
closepath
gsave
0 setgray
fill
0 setgray
grestore
gsave
stroke
grestore
0 setlinejoin
0.05 setlinewidth
0 setgray
10 9 m
10.15 9.15 m
10.1376 9.15 m
10.1376 9.15 m
(6) s
10.3193 9.15 m
(9) s
10.15 9.15 m
10.15 9.15 m
10 9 m
10 9 m
10 9 m
11.8974 9 l
stroke
 newpath 11.525 8.89861 moveto
11.525 8.89861 moveto
11.9034 9 l
11.525 9.10139 l
closepath
gsave
0 setgray
fill
0 setgray
grestore
gsave
stroke
grestore
12 9 m
12 9 m
11.8728 8.87285 m
1 setlinejoin
 newpath 12 9 0.127155 0 360 arc
closepath
gsave
0 setgray
fill
0 setgray
grestore
gsave
stroke
grestore
0 setlinejoin
0.05 setlinewidth
0 setgray
12 9 m
12.15 9.15 m
12.1427 9.15 m
12.1427 9.15 m
(7) s
12.3244 9.15 m
(0) s
12.15 9.15 m
12.15 9.15 m
12 9 m
12 9 m
12 9 m
13.8974 9 l
stroke
 newpath 13.525 8.89861 moveto
13.525 8.89861 moveto
13.9034 9 l
13.525 9.10139 l
closepath
gsave
0 setgray
fill
0 setgray
grestore
gsave
stroke
grestore
14 9 m
14 9 m
13.8728 8.87285 m
1 setlinejoin
 newpath 14 9 0.127155 0 360 arc
closepath
gsave
0 setgray
fill
0 setgray
grestore
gsave
stroke
grestore
0 setlinejoin
0.05 setlinewidth
0 setgray
14 9 m
14.15 9.15 m
14.1427 9.15 m
14.1427 9.15 m
(7) s
14.3244 9.15 m
(1) s
14.15 9.15 m
14.15 9.15 m
14 9 m
14 9 m
14 9 m
15.8974 9 l
stroke
 newpath 15.525 8.89861 moveto
15.525 8.89861 moveto
15.9034 9 l
15.525 9.10139 l
closepath
gsave
0 setgray
fill
0 setgray
grestore
gsave
stroke
grestore
16 9 m
16 9 m
15.8728 8.87285 m
1 setlinejoin
 newpath 16 9 0.127155 0 360 arc
closepath
gsave
0 setgray
fill
0 setgray
grestore
gsave
stroke
grestore
0 setlinejoin
0.05 setlinewidth
0 setgray
16 9 m
16.15 9.15 m
16.1427 9.15 m
16.1427 9.15 m
(7) s
16.3244 9.15 m
(2) s
16.15 9.15 m
16.15 9.15 m
16 9 m
0.1 setlinewidth
18 1 m
18 1.20526 m
18 1.20526 m
18 8.79474 l
stroke
 newpath 17.9312 1.45 moveto
17.9312 1.45 moveto
18 1.19319 l
18.0688 1.45 l
closepath
18.0688 8.55 moveto
18 8.80681 l
17.9312 8.55 l
closepath
gsave
0 setgray
fill
0 setgray
grestore
gsave
stroke
grestore
18 9 m
18.2 4 m
18.188 4 m
18.188 4 m
1 /Times-Roman f
(M) s
18.2 4 m
2 9.8 m
2.20526 9.8 m
2.20526 9.8 m
15.7947 9.8 l
stroke
 newpath 2.45 9.86881 moveto
2.45 9.86881 moveto
2.19319 9.8 l
2.45 9.73119 l
closepath
15.55 9.73119 moveto
15.8068 9.8 l
15.55 9.86881 l
closepath
gsave
0 setgray
fill
0 setgray
grestore
gsave
stroke
grestore
16 9.8 m
9 10 m
8.988 10 m
8.988 10 m
(N) s
9 10 m
showpage
grestore
%%Trailer
