%!PS-Adobe-2.0 EPSF-2.0
%%Creator: GLE 4.2.5 <www.gle-graphics.org>
%%CreationDate: Wed Nov 02 14:24:47 2016
%%Title: poisson.gle
%%BoundingBox: 0 0 399 371
%%HiResBoundingBox: 0 0 398.85 370.504
%%EndComments
%%EndProlog
gsave
/f {findfont exch scalefont setfont} bind def
/s {show} bind def
/ps {true charpath} bind def
/l {lineto} bind def
/m {newpath moveto} bind def
matrix currentmatrix /originmat exch def
/umatrix {originmat matrix concatmatrix setmatrix} def
[28.3465 0 0 28.3465 0 0] umatrix
[28.3465 0 0 28.3465 1 1] umatrix
[] 0 setdash
0.02 setlinewidth
0 setgray
0 0 m
[] 0 setdash
0.1 setlinewidth
0 12 m
0 12 m
12 0 l
stroke
0 11.5 m
0 11.5 m
11.5 0 l
stroke
0.5 12 m
0.5 12 m
12 0.5 l
stroke
3 12 m
3 12 m
12 3 l
stroke
0 9 m
0 9 m
9 0 l
stroke
[0.04 0.08 ] 0 setdash
0.05 setlinewidth
0 12 m
0 12 m
0 0 l
stroke
3 12 m
3 12 m
3 0 l
stroke
6 12 m
6 12 m
6 0 l
stroke
9 12 m
9 12 m
9 0 l
stroke
12 12 m
12 12 m
12 0 l
stroke
0 12 m
0 12 m
12 12 l
stroke
0 9 m
0 9 m
12 9 l
stroke
0 6 m
0 6 m
12 6 l
stroke
0 3 m
0 3 m
12 3 l
stroke
0 0 m
0 0 m
12 0 l
stroke
[] 0 setdash
0.15 setlinewidth
0 12.3 m
0.226667 12.3 m
0.226667 12.3 m
11.7733 12.3 l
stroke
 newpath 0.491667 12.3991 moveto
0.491667 12.3991 moveto
0.219285 12.3 l
0.491667 12.2009 l
closepath
11.5083 12.2009 moveto
11.7807 12.3 l
11.5083 12.3991 l
closepath
gsave
0 setgray
fill
0 setgray
grestore
gsave
stroke
grestore
12 12.3 m
7 12.5 m
6.99136 12.5 m
6.99136 12.5 m
0.72 /Times-Roman f
(N) s
7.5112 12.5 m
1 setlinejoin
 newpath 7.61776 12.7153 moveto
7.61776 12.7153 moveto
7.65592 12.7117 7.66024 12.6519 7.6228 12.6426 curveto
7.5868 12.6296 7.55728 12.68 7.58464 12.7052 curveto
7.58752 12.7066 l
7.59184 12.7102 l
7.59688 12.7131 l
7.60048 12.7146 l
7.60552 12.7153 l
closepath
closepath
gsave
0 setgray
fill
0 setgray
grestore
0 setlinejoin
0.15 setlinewidth
0 setgray
7.71064 12.5 m
(M) s
7 12.5 m
0.15 setlinewidth
12.3 0 m
12.3 0.226667 m
12.3 0.226667 m
12.3 11.7733 l
stroke
 newpath 12.2009 0.491667 moveto
12.2009 0.491667 moveto
12.3 0.219285 l
12.3991 0.491667 l
closepath
12.3991 11.5083 moveto
12.3 11.7807 l
12.2009 11.5083 l
closepath
gsave
0 setgray
fill
0 setgray
grestore
gsave
stroke
grestore
12.3 12 m
12.5 7 m
12.4914 7 m
12.4914 7 m
(N) s
13.0112 7 m
1 setlinejoin
 newpath 13.1178 7.21528 moveto
13.1178 7.21528 moveto
13.1559 7.21168 13.1602 7.15192 13.1228 7.14256 curveto
13.0868 7.1296 13.0573 7.18 13.0846 7.2052 curveto
13.0875 7.20664 l
13.0918 7.21024 l
13.0969 7.21312 l
13.1005 7.21456 l
13.1055 7.21528 l
closepath
closepath
gsave
0 setgray
fill
0 setgray
grestore
0 setlinejoin
0.15 setlinewidth
0 setgray
13.2106 7 m
(M) s
12.5 7 m
0.1 setlinewidth
6 6 m
6.20526 6 m
6.20526 6 m
8.79474 6 l
stroke
 newpath 6.50981 6.08484 moveto
6.50981 6.08484 moveto
6.19319 6 l
6.50981 5.91516 l
closepath
8.49019 5.91516 moveto
8.80681 6 l
8.49019 6.08484 l
closepath
gsave
0 setgray
fill
0 setgray
grestore
gsave
stroke
grestore
9 6 m
7.2 6.2 m
7.19136 6.2 m
7.19136 6.2 m
(N) s
7.2 6.2 m
0.1 setlinewidth
6 6 m
6 5.79474 m
6 5.79474 m
6 3.20526 l
stroke
 newpath 6.08484 5.49019 moveto
6.08484 5.49019 moveto
6 5.80681 l
5.91516 5.49019 l
closepath
5.91516 3.50981 moveto
6 3.19319 l
6.08484 3.50981 l
closepath
gsave
0 setgray
fill
0 setgray
grestore
gsave
stroke
grestore
6 3 m
5.2 4.5 m
5.19136 4.5 m
5.19136 4.5 m
(M) s
5.2 4.5 m
showpage
grestore
%%Trailer
