%!PS-Adobe-2.0 EPSF-2.0
%%Creator: GLE 4.2.5 <www.gle-graphics.org>
%%CreationDate: Mon Nov 07 13:03:04 2016
%%Title: simul.gle
%%BoundingBox: 0 0 995 938
%%HiResBoundingBox: 0 0 994.126 937.433
%%EndComments
%%EndProlog
gsave
/f {findfont exch scalefont setfont} bind def
/s {show} bind def
/ps {true charpath} bind def
/l {lineto} bind def
/m {newpath moveto} bind def
matrix currentmatrix /originmat exch def
/umatrix {originmat matrix concatmatrix setmatrix} def
[28.3465 0 0 28.3465 0 0] umatrix
[28.3465 0 0 28.3465 1 1] umatrix
[] 0 setdash
0.02 setlinewidth
0 setgray
0 0 m
[] 0 setdash
0.15 setlinewidth
0.15 setlinewidth
30.1 0 m
30.1 0.226667 m
30.1 0.226667 m
30.1 29.7733 l
stroke
 newpath 30.0009 0.491667 moveto
30.0009 0.491667 moveto
30.1 0.219285 l
30.1991 0.491667 l
closepath
30.1991 29.5083 moveto
30.1 29.7807 l
30.0009 29.5083 l
closepath
gsave
0 setgray
fill
0 setgray
grestore
gsave
stroke
grestore
30.1 30 m
30.3 15 m
30.2355 15 m
30.2355 15 m
1.5 /Times-Roman f
(3) s
30.9855 15 m
1 setlinejoin
 newpath 31.2075 15.4485 moveto
31.2075 15.4485 moveto
31.287 15.441 31.296 15.3165 31.218 15.297 curveto
31.143 15.27 31.0815 15.375 31.1385 15.4275 curveto
31.1445 15.4305 l
31.1535 15.438 l
31.164 15.444 l
31.1715 15.447 l
31.182 15.4485 l
closepath
closepath
gsave
0 setgray
fill
0 setgray
grestore
0 setlinejoin
0.15 setlinewidth
0 setgray
31.401 15 m
(N) s
32.484 15 m
1 setlinejoin
 newpath 32.706 15.4485 moveto
32.706 15.4485 moveto
32.7855 15.441 32.7945 15.3165 32.7165 15.297 curveto
32.6415 15.27 32.58 15.375 32.637 15.4275 curveto
32.643 15.4305 l
32.652 15.438 l
32.6625 15.444 l
32.67 15.447 l
32.6805 15.4485 l
closepath
closepath
gsave
0 setgray
fill
0 setgray
grestore
0 setlinejoin
0.15 setlinewidth
0 setgray
32.8995 15 m
(M) s
30.3 15 m
0.15 setlinewidth
0 30.1 m
0.226667 30.1 m
0.226667 30.1 m
29.7733 30.1 l
stroke
 newpath 0.491667 30.1991 moveto
0.491667 30.1991 moveto
0.219285 30.1 l
0.491667 30.0009 l
closepath
29.5083 30.0009 moveto
29.7807 30.1 l
29.5083 30.1991 l
closepath
gsave
0 setgray
fill
0 setgray
grestore
gsave
stroke
grestore
30 30.1 m
15 30.4 m
14.9355 30.4 m
14.9355 30.4 m
(3) s
15.6855 30.4 m
1 setlinejoin
 newpath 15.9075 30.8485 moveto
15.9075 30.8485 moveto
15.987 30.841 15.996 30.7165 15.918 30.697 curveto
15.843 30.67 15.7815 30.775 15.8385 30.8275 curveto
15.8445 30.8305 l
15.8535 30.838 l
15.864 30.844 l
15.8715 30.847 l
15.882 30.8485 l
closepath
closepath
gsave
0 setgray
fill
0 setgray
grestore
0 setlinejoin
0.15 setlinewidth
0 setgray
16.101 30.4 m
(N) s
17.184 30.4 m
1 setlinejoin
 newpath 17.406 30.8485 moveto
17.406 30.8485 moveto
17.4855 30.841 17.4945 30.7165 17.4165 30.697 curveto
17.3415 30.67 17.28 30.775 17.337 30.8275 curveto
17.343 30.8305 l
17.352 30.838 l
17.3625 30.844 l
17.37 30.847 l
17.3805 30.8485 l
closepath
closepath
gsave
0 setgray
fill
0 setgray
grestore
0 setlinejoin
0.15 setlinewidth
0 setgray
17.5995 30.4 m
(M) s
15 30.4 m
0 30 m
0 30 m
10 20 l
stroke
1 30 m
1 30 m
10 21 l
stroke
0 29 m
0 29 m
9 20 l
stroke
3 30 m
3 30 m
10 23 l
stroke
0 27 m
0 27 m
7 20 l
stroke
1 21 m
0.985 21 m
0.985 21 m
(J) s
1.5685 20.685 m
1.05 /Times-Roman f
(f) s
1.91815 20.4645 m
0.735 /Times-Roman f
(P) s
2.32681 20.4645 m
(s) s
2.61273 20.4645 m
(i) s
2.81706 21 m
1.5 /Times-Roman f
(\50) s
3.31656 21 m
1 setlinejoin
 newpath 3.68406 22.0185 moveto
3.68406 22.0185 moveto
3.68706 22.0155 l
3.85206 22.0155 l
3.85506 22.0125 l
3.93306 22.0125 l
3.93606 22.0155 l
4.10106 22.0155 l
4.10406 22.0185 l
4.14756 22.0185 l
4.14756 21.975 l
4.05606 21.975 l
4.02006 21.969 3.97056 21.975 3.95556 21.9315 curveto
3.95556 21.237 l
4.10706 21.2595 4.16406 21.435 4.17006 21.5625 curveto
4.17156 21.6525 4.15956 21.7695 4.25106 21.8205 curveto
4.25856 21.8235 l
4.26906 21.8265 l
4.38606 21.8265 l
4.39506 21.8175 l
4.39506 21.804 l
4.38606 21.7965 l
4.30956 21.798 4.29756 21.702 4.29156 21.6465 curveto
4.30506 21.4845 4.24056 21.2925 4.07406 21.2295 curveto
4.03656 21.21 3.99306 21.2085 3.95556 21.1965 curveto
3.95556 21.084 l
3.97056 21.0405 4.02006 21.045 4.05606 21.0405 curveto
4.14756 21.0405 l
4.14756 20.9985 l
4.10406 20.9985 l
4.10106 21 l
3.93606 21 l
3.93306 21.0015 l
3.85506 21.0015 l
3.85206 21 l
3.68706 21 l
3.68406 20.9985 l
3.64056 20.9985 l
3.64056 21.0405 l
3.73356 21.0405 l
3.76806 21.045 3.81906 21.0405 3.83406 21.084 curveto
3.83406 21.1965 l
3.70956 21.213 3.58056 21.291 3.53856 21.417 curveto
3.48456 21.5295 3.53106 21.6555 3.47256 21.7665 curveto
3.45456 21.7845 l
3.44256 21.7905 l
3.43206 21.7935 l
3.42906 21.7965 l
3.41106 21.7965 l
3.40206 21.804 l
3.40206 21.8145 l
3.40506 21.8205 l
3.40806 21.8235 l
3.41406 21.8265 l
3.52656 21.8265 l
3.60456 21.8085 3.62256 21.717 3.62706 21.6525 curveto
3.62406 21.519 3.63606 21.3675 3.74706 21.276 curveto
3.77256 21.258 3.80406 21.24 3.83406 21.237 curveto
3.83406 21.9315 l
3.81906 21.975 3.76806 21.969 3.73356 21.975 curveto
3.64056 21.975 l
3.64056 22.0185 l
3.68406 22.0185 l
closepath
closepath
gsave
0 setgray
fill
0 setgray
grestore
0 setlinejoin
0.15 setlinewidth
0 setgray
4.48206 21 m
(\51) s
1 21 m
10 30 m
10 30 m
20 20 l
stroke
11 21 m
10.985 21 m
10.985 21 m
(J) s
11.5685 20.685 m
1.05 /Times-Roman f
(f) s
11.9182 20.4645 m
0.735 /Times-Roman f
(P) s
12.3268 20.4645 m
(s) s
12.6127 20.4645 m
(i) s
12.8171 21 m
1.5 /Times-Roman f
(\50) s
13.3166 21 m
1 setlinejoin
 newpath 13.9691 22.035 moveto
13.9691 22.035 moveto
13.9721 22.032 l
13.9766 22.029 l
13.9766 22.0125 l
13.8911 21.666 l
13.8881 21.66 l
13.9436 21.648 14.0201 21.639 14.0696 21.5955 curveto
14.2211 21.495 14.1956 21.267 14.0771 21.1515 curveto
13.9886 21.0495 13.8536 20.9835 13.7201 20.982 curveto
13.7171 20.973 l
13.6496 20.703 l
13.6466 20.694 l
13.6436 20.6925 l
13.6391 20.6895 l
13.6196 20.6895 l
13.6136 20.694 l
13.6106 20.7 l
13.6106 20.706 l
13.6796 20.976 l
13.6811 20.979 l
13.5506 20.982 13.4081 21.0705 13.3946 21.21 curveto
13.3721 21.459 13.6226 21.6495 13.8491 21.6585 curveto
13.9421 22.026 l
13.9496 22.035 l
13.9691 22.035 l
closepath
closepath
13.8221 21.6225 moveto
13.6046 21.5955 13.4501 21.348 13.4996 21.1425 curveto
13.5236 21.0615 13.6076 21.012 13.6871 21.0105 curveto
13.6901 21.018 l
13.8386 21.615 l
13.8401 21.6195 l
13.8386 21.6255 l
13.8251 21.6255 l
13.8221 21.6225 l
closepath
closepath
13.8791 21.6225 moveto
13.8761 21.612 l
13.7276 21.015 l
13.7246 21.0135 l
13.8701 21.0165 14.0036 21.1335 14.0501 21.273 curveto
14.0921 21.378 14.0996 21.519 13.9931 21.5895 curveto
13.9586 21.6105 13.9166 21.6285 13.8791 21.6225 curveto
closepath
closepath
gsave
0 setgray
fill
0 setgray
grestore
0 setlinejoin
0.15 setlinewidth
0 setgray
14.2091 20.685 m
1.05 /Times-Roman f
(n) s
14.7341 21 m
1.5 /Times-Roman f
(\51) s
11 21 m
20 30 m
20 30 m
30 20 l
stroke
21 21 m
20.985 21 m
20.985 21 m
(J) s
21.5685 20.685 m
1.05 /Times-Roman f
(f) s
21.9182 20.4645 m
0.735 /Times-Roman f
(P) s
22.3268 20.4645 m
(s) s
22.6127 20.4645 m
(i) s
22.8171 21 m
1.5 /Times-Roman f
(\50) s
23.3166 21 m
1 setlinejoin
 newpath 23.9691 22.035 moveto
23.9691 22.035 moveto
23.9721 22.032 l
23.9766 22.029 l
23.9766 22.0125 l
23.8911 21.666 l
23.8881 21.66 l
23.9436 21.648 24.0201 21.639 24.0696 21.5955 curveto
24.2211 21.495 24.1956 21.267 24.0771 21.1515 curveto
23.9886 21.0495 23.8536 20.9835 23.7201 20.982 curveto
23.7171 20.973 l
23.6496 20.703 l
23.6466 20.694 l
23.6436 20.6925 l
23.6391 20.6895 l
23.6196 20.6895 l
23.6136 20.694 l
23.6106 20.7 l
23.6106 20.706 l
23.6796 20.976 l
23.6811 20.979 l
23.5506 20.982 23.4081 21.0705 23.3946 21.21 curveto
23.3721 21.459 23.6226 21.6495 23.8491 21.6585 curveto
23.9421 22.026 l
23.9496 22.035 l
23.9691 22.035 l
closepath
closepath
23.8221 21.6225 moveto
23.6046 21.5955 23.4501 21.348 23.4996 21.1425 curveto
23.5236 21.0615 23.6076 21.012 23.6871 21.0105 curveto
23.6901 21.018 l
23.8386 21.615 l
23.8401 21.6195 l
23.8386 21.6255 l
23.8251 21.6255 l
23.8221 21.6225 l
closepath
closepath
23.8791 21.6225 moveto
23.8761 21.612 l
23.7276 21.015 l
23.7246 21.0135 l
23.8701 21.0165 24.0036 21.1335 24.0501 21.273 curveto
24.0921 21.378 24.0996 21.519 23.9931 21.5895 curveto
23.9586 21.6105 23.9166 21.6285 23.8791 21.6225 curveto
closepath
closepath
gsave
0 setgray
fill
0 setgray
grestore
0 setlinejoin
0.15 setlinewidth
0 setgray
24.2091 20.685 m
1.05 /Times-Roman f
(p) s
24.7341 21 m
1.5 /Times-Roman f
(\51) s
21 21 m
10 20 m
10 20 m
20 10 l
stroke
11 20 m
11 20 m
20 11 l
stroke
10 19 m
10 19 m
19 10 l
stroke
13 20 m
13 20 m
20 13 l
stroke
10 17 m
10 17 m
17 10 l
stroke
11 11 m
10.985 11 m
10.985 11 m
(J) s
11.5685 10.685 m
1.05 /Times-Roman f
(f) s
11.9182 10.4645 m
1 setlinejoin
 newpath 12.2379 10.9717 moveto
12.2379 10.9717 moveto
12.2393 10.9702 l
12.2416 10.9687 l
12.2416 10.9606 l
12.1997 10.7908 l
12.1982 10.7879 l
12.2254 10.782 12.2629 10.7776 12.2871 10.7563 curveto
12.3614 10.707 12.3489 10.5953 12.2908 10.5387 curveto
12.2474 10.4888 12.1813 10.4564 12.1159 10.4557 curveto
12.1144 10.4513 l
12.0813 10.319 l
12.0799 10.3146 l
12.0784 10.3138 l
12.0762 10.3124 l
12.0666 10.3124 l
12.0637 10.3146 l
12.0622 10.3175 l
12.0622 10.3204 l
12.096 10.4527 l
12.0968 10.4542 l
12.0328 10.4557 11.963 10.499 11.9564 10.5674 curveto
11.9453 10.6894 12.0681 10.7828 12.1791 10.7872 curveto
12.2246 10.9672 l
12.2283 10.9717 l
12.2379 10.9717 l
closepath
closepath
12.1658 10.7695 moveto
12.0593 10.7563 11.9836 10.635 12.0078 10.5343 curveto
12.0196 10.4946 12.0607 10.4704 12.0997 10.4696 curveto
12.1012 10.4733 l
12.1739 10.7659 l
12.1747 10.7681 l
12.1739 10.771 l
12.1673 10.771 l
12.1658 10.7695 l
closepath
closepath
12.1938 10.7695 moveto
12.1923 10.7644 l
12.1195 10.4718 l
12.1181 10.4711 l
12.1894 10.4726 12.2548 10.5299 12.2776 10.5983 curveto
12.2981 10.6497 12.3018 10.7188 12.2496 10.7534 curveto
12.2327 10.7636 12.2122 10.7725 12.1938 10.7695 curveto
closepath
closepath
gsave
0 setgray
fill
0 setgray
grestore
0 setlinejoin
0.15 setlinewidth
0 setgray
12.3555 10.3101 m
0.5145 /Times-Roman f
(n) s
12.6127 11 m
1.5 /Times-Roman f
(\50) s
13.1122 11 m
1 setlinejoin
 newpath 13.7647 12.035 moveto
13.7647 12.035 moveto
13.7677 12.032 l
13.7722 12.029 l
13.7722 12.0125 l
13.6867 11.666 l
13.6837 11.66 l
13.7392 11.648 13.8157 11.639 13.8652 11.5955 curveto
14.0167 11.495 13.9912 11.267 13.8727 11.1515 curveto
13.7842 11.0495 13.6492 10.9835 13.5157 10.982 curveto
13.5127 10.973 l
13.4452 10.703 l
13.4422 10.694 l
13.4392 10.6925 l
13.4347 10.6895 l
13.4152 10.6895 l
13.4092 10.694 l
13.4062 10.7 l
13.4062 10.706 l
13.4752 10.976 l
13.4767 10.979 l
13.3462 10.982 13.2037 11.0705 13.1902 11.21 curveto
13.1677 11.459 13.4182 11.6495 13.6447 11.6585 curveto
13.7377 12.026 l
13.7452 12.035 l
13.7647 12.035 l
closepath
closepath
13.6177 11.6225 moveto
13.4002 11.5955 13.2457 11.348 13.2952 11.1425 curveto
13.3192 11.0615 13.4032 11.012 13.4827 11.0105 curveto
13.4857 11.018 l
13.6342 11.615 l
13.6357 11.6195 l
13.6342 11.6255 l
13.6207 11.6255 l
13.6177 11.6225 l
closepath
closepath
13.6747 11.6225 moveto
13.6717 11.612 l
13.5232 11.015 l
13.5202 11.0135 l
13.6657 11.0165 13.7992 11.1335 13.8457 11.273 curveto
13.8877 11.378 13.8952 11.519 13.7887 11.5895 curveto
13.7542 11.6105 13.7122 11.6285 13.6747 11.6225 curveto
closepath
closepath
gsave
0 setgray
fill
0 setgray
grestore
0 setlinejoin
0.15 setlinewidth
0 setgray
14.0047 10.685 m
1.05 /Times-Roman f
(n) s
14.5297 11 m
1.5 /Times-Roman f
(\51) s
11 11 m
0 20 m
0 20 m
10 10 l
stroke
1 20 m
1 20 m
10 11 l
stroke
0 19 m
0 19 m
9 10 l
stroke
3 20 m
3 20 m
10 13 l
stroke
0 17 m
0 17 m
7 10 l
stroke
1 11 m
0.985 11 m
0.985 11 m
(J) s
1.5685 10.685 m
1.05 /Times-Roman f
(f) s
1.91815 10.4645 m
1 setlinejoin
 newpath 2.23788 10.9717 moveto
2.23788 10.9717 moveto
2.23935 10.9702 l
2.24155 10.9687 l
2.24155 10.9606 l
2.19966 10.7908 l
2.19819 10.7879 l
2.22538 10.782 2.26287 10.7776 2.28712 10.7563 curveto
2.36136 10.707 2.34886 10.5953 2.2908 10.5387 curveto
2.24743 10.4888 2.18128 10.4564 2.11587 10.4557 curveto
2.1144 10.4513 l
2.08132 10.319 l
2.07985 10.3146 l
2.07838 10.3138 l
2.07618 10.3124 l
2.06662 10.3124 l
2.06368 10.3146 l
2.06221 10.3175 l
2.06221 10.3204 l
2.09602 10.4527 l
2.09676 10.4542 l
2.03281 10.4557 1.96299 10.499 1.95637 10.5674 curveto
1.94535 10.6894 2.06809 10.7828 2.17908 10.7872 curveto
2.22465 10.9672 l
2.22832 10.9717 l
2.23788 10.9717 l
closepath
closepath
2.16585 10.7695 moveto
2.05927 10.7563 1.98357 10.635 2.00782 10.5343 curveto
2.01958 10.4946 2.06074 10.4704 2.0997 10.4696 curveto
2.10117 10.4733 l
2.17393 10.7659 l
2.17467 10.7681 l
2.17393 10.771 l
2.16732 10.771 l
2.16585 10.7695 l
closepath
closepath
2.19378 10.7695 moveto
2.19231 10.7644 l
2.11954 10.4718 l
2.11807 10.4711 l
2.18937 10.4726 2.25478 10.5299 2.27757 10.5983 curveto
2.29815 10.6497 2.30182 10.7188 2.24964 10.7534 curveto
2.23273 10.7636 2.21215 10.7725 2.19378 10.7695 curveto
closepath
closepath
gsave
0 setgray
fill
0 setgray
grestore
0 setlinejoin
0.15 setlinewidth
0 setgray
2.35548 10.3101 m
0.5145 /Times-Roman f
(n) s
2.61273 11 m
1.5 /Times-Roman f
(\50) s
3.11223 11 m
1 setlinejoin
 newpath 3.47973 12.0185 moveto
3.47973 12.0185 moveto
3.48273 12.0155 l
3.64773 12.0155 l
3.65073 12.0125 l
3.72873 12.0125 l
3.73173 12.0155 l
3.89673 12.0155 l
3.89973 12.0185 l
3.94323 12.0185 l
3.94323 11.975 l
3.85173 11.975 l
3.81573 11.969 3.76623 11.975 3.75123 11.9315 curveto
3.75123 11.237 l
3.90273 11.2595 3.95973 11.435 3.96573 11.5625 curveto
3.96723 11.6525 3.95523 11.7695 4.04673 11.8205 curveto
4.05423 11.8235 l
4.06473 11.8265 l
4.18173 11.8265 l
4.19073 11.8175 l
4.19073 11.804 l
4.18173 11.7965 l
4.10523 11.798 4.09323 11.702 4.08723 11.6465 curveto
4.10073 11.4845 4.03623 11.2925 3.86973 11.2295 curveto
3.83223 11.21 3.78873 11.2085 3.75123 11.1965 curveto
3.75123 11.084 l
3.76623 11.0405 3.81573 11.045 3.85173 11.0405 curveto
3.94323 11.0405 l
3.94323 10.9985 l
3.89973 10.9985 l
3.89673 11 l
3.73173 11 l
3.72873 11.0015 l
3.65073 11.0015 l
3.64773 11 l
3.48273 11 l
3.47973 10.9985 l
3.43623 10.9985 l
3.43623 11.0405 l
3.52923 11.0405 l
3.56373 11.045 3.61473 11.0405 3.62973 11.084 curveto
3.62973 11.1965 l
3.50523 11.213 3.37623 11.291 3.33423 11.417 curveto
3.28023 11.5295 3.32673 11.6555 3.26823 11.7665 curveto
3.25023 11.7845 l
3.23823 11.7905 l
3.22773 11.7935 l
3.22473 11.7965 l
3.20673 11.7965 l
3.19773 11.804 l
3.19773 11.8145 l
3.20073 11.8205 l
3.20373 11.8235 l
3.20973 11.8265 l
3.32223 11.8265 l
3.40023 11.8085 3.41823 11.717 3.42273 11.6525 curveto
3.41973 11.519 3.43173 11.3675 3.54273 11.276 curveto
3.56823 11.258 3.59973 11.24 3.62973 11.237 curveto
3.62973 11.9315 l
3.61473 11.975 3.56373 11.969 3.52923 11.975 curveto
3.43623 11.975 l
3.43623 12.0185 l
3.47973 12.0185 l
closepath
closepath
gsave
0 setgray
fill
0 setgray
grestore
0 setlinejoin
0.15 setlinewidth
0 setgray
4.27773 11 m
(\51) s
1 11 m
20 20 m
20 20 m
30 10 l
stroke
21 11 m
20.985 11 m
20.985 11 m
(J) s
21.5685 10.685 m
1.05 /Times-Roman f
(f) s
21.9182 10.4645 m
1 setlinejoin
 newpath 22.2379 10.9717 moveto
22.2379 10.9717 moveto
22.2393 10.9702 l
22.2416 10.9687 l
22.2416 10.9606 l
22.1997 10.7908 l
22.1982 10.7879 l
22.2254 10.782 22.2629 10.7776 22.2871 10.7563 curveto
22.3614 10.707 22.3489 10.5953 22.2908 10.5387 curveto
22.2474 10.4888 22.1813 10.4564 22.1159 10.4557 curveto
22.1144 10.4513 l
22.0813 10.319 l
22.0799 10.3146 l
22.0784 10.3138 l
22.0762 10.3124 l
22.0666 10.3124 l
22.0637 10.3146 l
22.0622 10.3175 l
22.0622 10.3204 l
22.096 10.4527 l
22.0968 10.4542 l
22.0328 10.4557 21.963 10.499 21.9564 10.5674 curveto
21.9453 10.6894 22.0681 10.7828 22.1791 10.7872 curveto
22.2246 10.9672 l
22.2283 10.9717 l
22.2379 10.9717 l
closepath
closepath
22.1658 10.7695 moveto
22.0593 10.7563 21.9836 10.635 22.0078 10.5343 curveto
22.0196 10.4946 22.0607 10.4704 22.0997 10.4696 curveto
22.1012 10.4733 l
22.1739 10.7659 l
22.1747 10.7681 l
22.1739 10.771 l
22.1673 10.771 l
22.1658 10.7695 l
closepath
closepath
22.1938 10.7695 moveto
22.1923 10.7644 l
22.1195 10.4718 l
22.1181 10.4711 l
22.1894 10.4726 22.2548 10.5299 22.2776 10.5983 curveto
22.2981 10.6497 22.3018 10.7188 22.2496 10.7534 curveto
22.2327 10.7636 22.2122 10.7725 22.1938 10.7695 curveto
closepath
closepath
gsave
0 setgray
fill
0 setgray
grestore
0 setlinejoin
0.15 setlinewidth
0 setgray
22.3555 10.3101 m
0.5145 /Times-Roman f
(n) s
22.6127 11 m
1.5 /Times-Roman f
(\50) s
23.1122 11 m
1 setlinejoin
 newpath 23.7647 12.035 moveto
23.7647 12.035 moveto
23.7677 12.032 l
23.7722 12.029 l
23.7722 12.0125 l
23.6867 11.666 l
23.6837 11.66 l
23.7392 11.648 23.8157 11.639 23.8652 11.5955 curveto
24.0167 11.495 23.9912 11.267 23.8727 11.1515 curveto
23.7842 11.0495 23.6492 10.9835 23.5157 10.982 curveto
23.5127 10.973 l
23.4452 10.703 l
23.4422 10.694 l
23.4392 10.6925 l
23.4347 10.6895 l
23.4152 10.6895 l
23.4092 10.694 l
23.4062 10.7 l
23.4062 10.706 l
23.4752 10.976 l
23.4767 10.979 l
23.3462 10.982 23.2037 11.0705 23.1902 11.21 curveto
23.1677 11.459 23.4182 11.6495 23.6447 11.6585 curveto
23.7377 12.026 l
23.7452 12.035 l
23.7647 12.035 l
closepath
closepath
23.6177 11.6225 moveto
23.4002 11.5955 23.2457 11.348 23.2952 11.1425 curveto
23.3192 11.0615 23.4032 11.012 23.4827 11.0105 curveto
23.4857 11.018 l
23.6342 11.615 l
23.6357 11.6195 l
23.6342 11.6255 l
23.6207 11.6255 l
23.6177 11.6225 l
closepath
closepath
23.6747 11.6225 moveto
23.6717 11.612 l
23.5232 11.015 l
23.5202 11.0135 l
23.6657 11.0165 23.7992 11.1335 23.8457 11.273 curveto
23.8877 11.378 23.8952 11.519 23.7887 11.5895 curveto
23.7542 11.6105 23.7122 11.6285 23.6747 11.6225 curveto
closepath
closepath
gsave
0 setgray
fill
0 setgray
grestore
0 setlinejoin
0.15 setlinewidth
0 setgray
24.0047 10.685 m
1.05 /Times-Roman f
(p) s
24.5297 11 m
1.5 /Times-Roman f
(\51) s
21 11 m
20 10 m
20 10 m
30 0 l
stroke
21 10 m
21 10 m
30 1 l
stroke
20 9 m
20 9 m
29 0 l
stroke
23 10 m
23 10 m
30 3 l
stroke
20 7 m
20 7 m
27 0 l
stroke
21 1 m
20.985 1 m
20.985 1 m
(J) s
21.5685 0.685 m
1.05 /Times-Roman f
(f) s
21.9182 0.4645 m
1 setlinejoin
 newpath 22.2379 0.97165 moveto
22.2379 0.97165 moveto
22.2393 0.97018 l
22.2416 0.96871 l
22.2416 0.960625 l
22.1997 0.79084 l
22.1982 0.7879 l
22.2254 0.78202 22.2629 0.77761 22.2871 0.756295 curveto
22.3614 0.70705 22.3489 0.59533 22.2908 0.538735 curveto
22.2474 0.488755 22.1813 0.456415 22.1159 0.45568 curveto
22.1144 0.45127 l
22.0813 0.31897 l
22.0799 0.31456 l
22.0784 0.313825 l
22.0762 0.312355 l
22.0666 0.312355 l
22.0637 0.31456 l
22.0622 0.3175 l
22.0622 0.32044 l
22.096 0.45274 l
22.0968 0.45421 l
22.0328 0.45568 21.963 0.499045 21.9564 0.5674 curveto
21.9453 0.68941 22.0681 0.782755 22.1791 0.787165 curveto
22.2246 0.96724 l
22.2283 0.97165 l
22.2379 0.97165 l
closepath
closepath
22.1658 0.769525 moveto
22.0593 0.756295 21.9836 0.63502 22.0078 0.534325 curveto
22.0196 0.494635 22.0607 0.47038 22.0997 0.469645 curveto
22.1012 0.47332 l
22.1739 0.76585 l
22.1747 0.768055 l
22.1739 0.770995 l
22.1673 0.770995 l
22.1658 0.769525 l
closepath
closepath
22.1938 0.769525 moveto
22.1923 0.76438 l
22.1195 0.47185 l
22.1181 0.471115 l
22.1894 0.472585 22.2548 0.529915 22.2776 0.59827 curveto
22.2981 0.64972 22.3018 0.71881 22.2496 0.753355 curveto
22.2327 0.763645 22.2122 0.772465 22.1938 0.769525 curveto
closepath
closepath
gsave
0 setgray
fill
0 setgray
grestore
0 setlinejoin
0.15 setlinewidth
0 setgray
22.3555 0.31015 m
0.5145 /Times-Roman f
(p) s
22.6127 1 m
1.5 /Times-Roman f
(\50) s
23.1122 1 m
1 setlinejoin
 newpath 23.7647 2.035 moveto
23.7647 2.035 moveto
23.7677 2.032 l
23.7722 2.029 l
23.7722 2.0125 l
23.6867 1.666 l
23.6837 1.66 l
23.7392 1.648 23.8157 1.639 23.8652 1.5955 curveto
24.0167 1.495 23.9912 1.267 23.8727 1.1515 curveto
23.7842 1.0495 23.6492 0.9835 23.5157 0.982 curveto
23.5127 0.973 l
23.4452 0.703 l
23.4422 0.694 l
23.4392 0.6925 l
23.4347 0.6895 l
23.4152 0.6895 l
23.4092 0.694 l
23.4062 0.7 l
23.4062 0.706 l
23.4752 0.976 l
23.4767 0.979 l
23.3462 0.982 23.2037 1.0705 23.1902 1.21 curveto
23.1677 1.459 23.4182 1.6495 23.6447 1.6585 curveto
23.7377 2.026 l
23.7452 2.035 l
23.7647 2.035 l
closepath
closepath
23.6177 1.6225 moveto
23.4002 1.5955 23.2457 1.348 23.2952 1.1425 curveto
23.3192 1.0615 23.4032 1.012 23.4827 1.0105 curveto
23.4857 1.018 l
23.6342 1.615 l
23.6357 1.6195 l
23.6342 1.6255 l
23.6207 1.6255 l
23.6177 1.6225 l
closepath
closepath
23.6747 1.6225 moveto
23.6717 1.612 l
23.5232 1.015 l
23.5202 1.0135 l
23.6657 1.0165 23.7992 1.1335 23.8457 1.273 curveto
23.8877 1.378 23.8952 1.519 23.7887 1.5895 curveto
23.7542 1.6105 23.7122 1.6285 23.6747 1.6225 curveto
closepath
closepath
gsave
0 setgray
fill
0 setgray
grestore
0 setlinejoin
0.15 setlinewidth
0 setgray
24.0047 0.685 m
1.05 /Times-Roman f
(p) s
24.5297 1 m
1.5 /Times-Roman f
(\51) s
21 1 m
10 10 m
10 10 m
20 0 l
stroke
11 1 m
10.985 1 m
10.985 1 m
(J) s
11.5685 0.685 m
1.05 /Times-Roman f
(f) s
11.9182 0.4645 m
1 setlinejoin
 newpath 12.2379 0.97165 moveto
12.2379 0.97165 moveto
12.2393 0.97018 l
12.2416 0.96871 l
12.2416 0.960625 l
12.1997 0.79084 l
12.1982 0.7879 l
12.2254 0.78202 12.2629 0.77761 12.2871 0.756295 curveto
12.3614 0.70705 12.3489 0.59533 12.2908 0.538735 curveto
12.2474 0.488755 12.1813 0.456415 12.1159 0.45568 curveto
12.1144 0.45127 l
12.0813 0.31897 l
12.0799 0.31456 l
12.0784 0.313825 l
12.0762 0.312355 l
12.0666 0.312355 l
12.0637 0.31456 l
12.0622 0.3175 l
12.0622 0.32044 l
12.096 0.45274 l
12.0968 0.45421 l
12.0328 0.45568 11.963 0.499045 11.9564 0.5674 curveto
11.9453 0.68941 12.0681 0.782755 12.1791 0.787165 curveto
12.2246 0.96724 l
12.2283 0.97165 l
12.2379 0.97165 l
closepath
closepath
12.1658 0.769525 moveto
12.0593 0.756295 11.9836 0.63502 12.0078 0.534325 curveto
12.0196 0.494635 12.0607 0.47038 12.0997 0.469645 curveto
12.1012 0.47332 l
12.1739 0.76585 l
12.1747 0.768055 l
12.1739 0.770995 l
12.1673 0.770995 l
12.1658 0.769525 l
closepath
closepath
12.1938 0.769525 moveto
12.1923 0.76438 l
12.1195 0.47185 l
12.1181 0.471115 l
12.1894 0.472585 12.2548 0.529915 12.2776 0.59827 curveto
12.2981 0.64972 12.3018 0.71881 12.2496 0.753355 curveto
12.2327 0.763645 12.2122 0.772465 12.1938 0.769525 curveto
closepath
closepath
gsave
0 setgray
fill
0 setgray
grestore
0 setlinejoin
0.15 setlinewidth
0 setgray
12.3555 0.31015 m
0.5145 /Times-Roman f
(p) s
12.6127 1 m
1.5 /Times-Roman f
(\50) s
13.1122 1 m
1 setlinejoin
 newpath 13.7647 2.035 moveto
13.7647 2.035 moveto
13.7677 2.032 l
13.7722 2.029 l
13.7722 2.0125 l
13.6867 1.666 l
13.6837 1.66 l
13.7392 1.648 13.8157 1.639 13.8652 1.5955 curveto
14.0167 1.495 13.9912 1.267 13.8727 1.1515 curveto
13.7842 1.0495 13.6492 0.9835 13.5157 0.982 curveto
13.5127 0.973 l
13.4452 0.703 l
13.4422 0.694 l
13.4392 0.6925 l
13.4347 0.6895 l
13.4152 0.6895 l
13.4092 0.694 l
13.4062 0.7 l
13.4062 0.706 l
13.4752 0.976 l
13.4767 0.979 l
13.3462 0.982 13.2037 1.0705 13.1902 1.21 curveto
13.1677 1.459 13.4182 1.6495 13.6447 1.6585 curveto
13.7377 2.026 l
13.7452 2.035 l
13.7647 2.035 l
closepath
closepath
13.6177 1.6225 moveto
13.4002 1.5955 13.2457 1.348 13.2952 1.1425 curveto
13.3192 1.0615 13.4032 1.012 13.4827 1.0105 curveto
13.4857 1.018 l
13.6342 1.615 l
13.6357 1.6195 l
13.6342 1.6255 l
13.6207 1.6255 l
13.6177 1.6225 l
closepath
closepath
13.6747 1.6225 moveto
13.6717 1.612 l
13.5232 1.015 l
13.5202 1.0135 l
13.6657 1.0165 13.7992 1.1335 13.8457 1.273 curveto
13.8877 1.378 13.8952 1.519 13.7887 1.5895 curveto
13.7542 1.6105 13.7122 1.6285 13.6747 1.6225 curveto
closepath
closepath
gsave
0 setgray
fill
0 setgray
grestore
0 setlinejoin
0.15 setlinewidth
0 setgray
14.0047 0.685 m
1.05 /Times-Roman f
(n) s
14.5297 1 m
1.5 /Times-Roman f
(\51) s
11 1 m
0 10 m
0 10 m
10 0 l
stroke
1 10 m
1 10 m
10 1 l
stroke
0 9 m
0 9 m
9 0 l
stroke
3 10 m
3 10 m
10 3 l
stroke
0 7 m
0 7 m
7 0 l
stroke
1 1 m
0.985 1 m
0.985 1 m
(J) s
1.5685 0.685 m
1.05 /Times-Roman f
(f) s
1.91815 0.4645 m
1 setlinejoin
 newpath 2.23788 0.97165 moveto
2.23788 0.97165 moveto
2.23935 0.97018 l
2.24155 0.96871 l
2.24155 0.960625 l
2.19966 0.79084 l
2.19819 0.7879 l
2.22538 0.78202 2.26287 0.77761 2.28712 0.756295 curveto
2.36136 0.70705 2.34886 0.59533 2.2908 0.538735 curveto
2.24743 0.488755 2.18128 0.456415 2.11587 0.45568 curveto
2.1144 0.45127 l
2.08132 0.31897 l
2.07985 0.31456 l
2.07838 0.313825 l
2.07618 0.312355 l
2.06662 0.312355 l
2.06368 0.31456 l
2.06221 0.3175 l
2.06221 0.32044 l
2.09602 0.45274 l
2.09676 0.45421 l
2.03281 0.45568 1.96299 0.499045 1.95637 0.5674 curveto
1.94535 0.68941 2.06809 0.782755 2.17908 0.787165 curveto
2.22465 0.96724 l
2.22832 0.97165 l
2.23788 0.97165 l
closepath
closepath
2.16585 0.769525 moveto
2.05927 0.756295 1.98357 0.63502 2.00782 0.534325 curveto
2.01958 0.494635 2.06074 0.47038 2.0997 0.469645 curveto
2.10117 0.47332 l
2.17393 0.76585 l
2.17467 0.768055 l
2.17393 0.770995 l
2.16732 0.770995 l
2.16585 0.769525 l
closepath
closepath
2.19378 0.769525 moveto
2.19231 0.76438 l
2.11954 0.47185 l
2.11807 0.471115 l
2.18937 0.472585 2.25478 0.529915 2.27757 0.59827 curveto
2.29815 0.64972 2.30182 0.71881 2.24964 0.753355 curveto
2.23273 0.763645 2.21215 0.772465 2.19378 0.769525 curveto
closepath
closepath
gsave
0 setgray
fill
0 setgray
grestore
0 setlinejoin
0.15 setlinewidth
0 setgray
2.35548 0.31015 m
0.5145 /Times-Roman f
(p) s
2.61273 1 m
1.5 /Times-Roman f
(\50) s
3.11223 1 m
1 setlinejoin
 newpath 3.47973 2.0185 moveto
3.47973 2.0185 moveto
3.48273 2.0155 l
3.64773 2.0155 l
3.65073 2.0125 l
3.72873 2.0125 l
3.73173 2.0155 l
3.89673 2.0155 l
3.89973 2.0185 l
3.94323 2.0185 l
3.94323 1.975 l
3.85173 1.975 l
3.81573 1.969 3.76623 1.975 3.75123 1.9315 curveto
3.75123 1.237 l
3.90273 1.2595 3.95973 1.435 3.96573 1.5625 curveto
3.96723 1.6525 3.95523 1.7695 4.04673 1.8205 curveto
4.05423 1.8235 l
4.06473 1.8265 l
4.18173 1.8265 l
4.19073 1.8175 l
4.19073 1.804 l
4.18173 1.7965 l
4.10523 1.798 4.09323 1.702 4.08723 1.6465 curveto
4.10073 1.4845 4.03623 1.2925 3.86973 1.2295 curveto
3.83223 1.21 3.78873 1.2085 3.75123 1.1965 curveto
3.75123 1.084 l
3.76623 1.0405 3.81573 1.045 3.85173 1.0405 curveto
3.94323 1.0405 l
3.94323 0.9985 l
3.89973 0.9985 l
3.89673 1 l
3.73173 1 l
3.72873 1.0015 l
3.65073 1.0015 l
3.64773 1 l
3.48273 1 l
3.47973 0.9985 l
3.43623 0.9985 l
3.43623 1.0405 l
3.52923 1.0405 l
3.56373 1.045 3.61473 1.0405 3.62973 1.084 curveto
3.62973 1.1965 l
3.50523 1.213 3.37623 1.291 3.33423 1.417 curveto
3.28023 1.5295 3.32673 1.6555 3.26823 1.7665 curveto
3.25023 1.7845 l
3.23823 1.7905 l
3.22773 1.7935 l
3.22473 1.7965 l
3.20673 1.7965 l
3.19773 1.804 l
3.19773 1.8145 l
3.20073 1.8205 l
3.20373 1.8235 l
3.20973 1.8265 l
3.32223 1.8265 l
3.40023 1.8085 3.41823 1.717 3.42273 1.6525 curveto
3.41973 1.519 3.43173 1.3675 3.54273 1.276 curveto
3.56823 1.258 3.59973 1.24 3.62973 1.237 curveto
3.62973 1.9315 l
3.61473 1.975 3.56373 1.969 3.52923 1.975 curveto
3.43623 1.975 l
3.43623 2.0185 l
3.47973 2.0185 l
closepath
closepath
gsave
0 setgray
fill
0 setgray
grestore
0 setlinejoin
0.15 setlinewidth
0 setgray
4.27773 1 m
(\51) s
1 1 m
[0.04 0.08 ] 0 setdash
10 30 m
10 30 m
10 0 l
stroke
20 30 m
20 30 m
20 0 l
stroke
30 30 m
30 30 m
30 0 l
stroke
0 30 m
0 30 m
0 0 l
stroke
0 0 m
0 0 m
30 0 l
stroke
0 10 m
0 10 m
30 10 l
stroke
0 20 m
0 20 m
30 20 l
stroke
0 30 m
0 30 m
30 30 l
stroke
showpage
grestore
%%Trailer
