&DOPING profile='const' low_xyz=0 upp_xyz=2.5e-05 d_con=1e+20/
&DOPING profile='const' low_xyz=2.5001e-05 upp_xyz=5e-05 d_con=1e+20/
/
&GRADING profile='const' low_xyz=0 upp_xyz=1.6666666666666667e-05 c_max=0/
&GRADING profile='const' low_xyz=1.6666666666666667e-05 upp_xyz=3.3333333333333335e-05 c_max=0.5/
&GRADING profile='const' low_xyz=3.3333333333333335e-05 upp_xyz=5e-05 c_max=0/
/
&REGION_DEF reg_mat='SEMI' low_xyz=0 upp_xyz=2.5e-05 mod_name='InGaAs'/
&REGION_DEF reg_mat='SEMI' low_xyz=2.5e-05 upp_xyz=5e-05 mod_name='InGaAs'/
&REGION_DEF reg_mat='CONT' low_xyz=0 upp_xyz=0 mod_name='CONT' cont_name='A'/
&REGION_DEF reg_mat='CONT' low_xyz=5e-05 upp_xyz=5e-05 mod_name='CONT' cont_name='C'/
/
&SEMI mod_name='InGaAs' materialA='GaAs' materialB='InAs' bgn_model='jain' bgn_apparent=0 elec=1 elec2=0 hole=1 fermi=0 dim=3 eps=0 eps_c=0 bgap_gamhd=0.5 v_hd0=0 c_ref=0 c_hd=0 bgn_alpha=0 eoff=0 eoff_c=-0.38 temp0=300 bgn_a=4.76e-08 9.2e-09  bgn_b=9.9e-08 3.57e-07  bgn_c=0 3.65e-12 /
&SEMI mod_name='GaAs' materialA='' materialB='' bgn_model='default' bgn_apparent=0 elec=1 elec2=0 hole=1 fermi=0 dim=3 eps=12.9 eps_c=0 bgap_gamhd=0.5 v_hd0=0 c_ref=0 c_hd=0 bgn_alpha=0 eoff=0.0 eoff_c=0 temp0=300 bgn_a=1.65e-08 9.83e-09  bgn_b=2.39e-07 3.9e-07  bgn_c=9.14e-11 3.9e-12 /
&SEMI mod_name='InAs' materialA='' materialB='' bgn_model='jain' bgn_apparent=0 elec=1 elec2=0 hole=1 fermi=0 dim=3 eps=15.15 eps_c=0 bgap_gamhd=0.5 v_hd0=0 c_ref=0 c_hd=0 bgn_alpha=0 eoff=0.21000000000000008 eoff_c=0 temp0=300 bgn_a=3.06e-08 8.34e-09  bgn_b=0 2.91e-07  bgn_c=0 4.53e-12 /
/
&BAND_DEF mod_name='InGaAs' valley='G' band='cb' type='para' e0=0.7595 e0_c=0.477 deg=1 e0_alpha=0 e0_beta=0 m_eff=0 m_eff_c=0.0091 al=0.7/
&BAND_DEF mod_name='InGaAs' valley='L' band='cb' type='para' e0=0.7595 e0_c=0.33 deg=1 e0_alpha=0 e0_beta=0 m_eff=0 m_eff_c=0 al=0/
&BAND_DEF mod_name='InGaAs' valley='h' band='vb' type='para' e0=-0.7595 e0_c=0 deg=1 e0_alpha=0 e0_beta=0 m_eff=0 m_eff_c=0.03 al=0/
&BAND_DEF mod_name='GaAs' valley='G' band='cb' type='para' e0=0.7595 e0_c=0 deg=1 e0_alpha=0.0005405 e0_beta=204 m_eff=0.067 m_eff_c=0 al=1.424/
&BAND_DEF mod_name='GaAs' valley='L' band='cb' type='para' e0=1.0735 e0_c=0 deg=4 e0_alpha=0.000605 e0_beta=204 m_eff=0.221 m_eff_c=0 al=0/
&BAND_DEF mod_name='GaAs' valley='h' band='vb' type='para' e0=-0.7595 e0_c=0 deg=1 e0_alpha=0 e0_beta=0 m_eff=0.49 m_eff_c=0 al=0/
&BAND_DEF mod_name='InAs' valley='G' band='cb' type='para' e0=0.2085 e0_c=0 deg=1 e0_alpha=0.000276 e0_beta=93 m_eff=0.026 m_eff_c=0 al=1.39/
&BAND_DEF mod_name='InAs' valley='L' band='cb' type='para' e0=0.9385 e0_c=0 deg=4 e0_alpha=0.000276 e0_beta=93 m_eff=0.29 m_eff_c=0 al=0/
&BAND_DEF mod_name='InAs' valley='h' band='vb' type='para' e0=-0.2085 e0_c=0 deg=1 e0_alpha=0 e0_beta=0 m_eff=0.41 m_eff_c=0 al=0/
/
&TAU_E mod_name='InGaAs' valley='G' tau_type='default' t0_bow=1.8e-12 c0_bow=-61/
&TAU_E mod_name='GaAs' valley='G' tau_type='default' t0=4.8e-13 t1=2.5e-14 c0=0 c1=-0.053 c2=0.853 c3=0.5/
&TAU_E mod_name='InAs' valley='G' tau_type='default' t0=8e-14 t1=2.5e-14 c0=3 c1=-0.053 c2=0.853 c3=0.5/
/
&MOB_DEF mod_name='InGaAs' valley='G' l_scat_type='temp' li_scat_type='caughey-thomas' hc_scat_type='sat' force='phi' v_sat_type='default' bowing='default' mu_l=0 gamma_l=0 mu_min=0 c_ref=0 alpha=0 gamma_1=0 gamma_2=0 gamma_3=0 gamma_4=0 alpha_2=0 c_ref_2=0 mu_hd=0 r=0 beta=1 f0=0 v_sat=0 a=0 zeta_v=0 mu_bow=100.0 v_sat_bow=-19600.0 v_sat_a1=0 v_sat_a2=0 mu_min_a1=0 mu_min_a2=0 mu_l_a1=0 mu_l_a2=0/
&MOB_DEF mod_name='InGaAs' valley='L' l_scat_type='temp' li_scat_type='caughey-thomas' hc_scat_type='sat' force='phi' v_sat_type='default' bowing='default' mu_l=0 gamma_l=0 mu_min=0 c_ref=0 alpha=0 gamma_1=0 gamma_2=0 gamma_3=0 gamma_4=0 alpha_2=0 c_ref_2=0 mu_hd=0 r=0 beta=1 f0=0 v_sat=0 a=0 zeta_v=0 mu_bow=0 v_sat_bow=0 v_sat_a1=0 v_sat_a2=0 mu_min_a1=0 mu_min_a2=0 mu_l_a1=0 mu_l_a2=0/
&MOB_DEF mod_name='InGaAs' valley='H' l_scat_type='temp' li_scat_type='caughey-thomas' hc_scat_type='sat' force='phi' v_sat_type='default' bowing='default' mu_l=0 gamma_l=0 mu_min=0 c_ref=0 alpha=0 gamma_1=0 gamma_2=0 gamma_3=0 gamma_4=0 alpha_2=0 c_ref_2=0 mu_hd=0 r=0 beta=1 f0=0 v_sat=0 a=0 zeta_v=0 mu_bow=100.0 v_sat_bow=0 v_sat_a1=0 v_sat_a2=0 mu_min_a1=0 mu_min_a2=0 mu_l_a1=0 mu_l_a2=0/
&MOB_DEF mod_name='GaAs' valley='G' l_scat_type='temp' li_scat_type='caughey-thomas' hc_scat_type='sat' force='phi' v_sat_type='default' bowing='' mu_l=0.706 0.706 0.706  gamma_l=-2.2 mu_min=0.0457 c_ref=5.2e+22 alpha=0.6 gamma_1=-0.9 gamma_2=-0.9 gamma_3=6.2 gamma_4=0 alpha_2=0.5 c_ref_2=0 mu_hd=0 r=0 beta=4.17 f0=400000.0 v_sat=230000.0 a=0.56 zeta_v=0 mu_bow=0 v_sat_bow=0 v_sat_a1=0 v_sat_a2=0 mu_min_a1=0 mu_min_a2=0 mu_l_a1=0 mu_l_a2=0/
&MOB_DEF mod_name='GaAs' valley='L' l_scat_type='temp' li_scat_type='caughey-thomas' hc_scat_type='sat' force='phi' v_sat_type='default' bowing='' mu_l=0.0377 0.0377 0.0377  gamma_l=-2.2 mu_min=0.0062 c_ref=4.09e+23 alpha=0.62 gamma_1=-0.9 gamma_2=-0.9 gamma_3=6.2 gamma_4=0 alpha_2=0.5 c_ref_2=0 mu_hd=0 r=0 beta=1.73 f0=400000.0 v_sat=92000.0 a=0.56 zeta_v=0 mu_bow=0 v_sat_bow=0 v_sat_a1=0 v_sat_a2=0 mu_min_a1=0 mu_min_a2=0 mu_l_a1=0 mu_l_a2=0/
&MOB_DEF mod_name='GaAs' valley='H' l_scat_type='temp' li_scat_type='caughey-thomas' hc_scat_type='sat' force='phi' v_sat_type='default' bowing='' mu_l=0.08 gamma_l=-0.9 mu_min=0.004 c_ref=1e+23 alpha=1 gamma_1=0 gamma_2=0 gamma_3=0.5 gamma_4=0 alpha_2=0 c_ref_2=0 mu_hd=0 r=0 beta=1 f0=0 v_sat=90000.0 a=0.41 zeta_v=0 mu_bow=0 v_sat_bow=0 v_sat_a1=0 v_sat_a2=0 mu_min_a1=0 mu_min_a2=0 mu_l_a1=0 mu_l_a2=0/
&MOB_DEF mod_name='InAs' valley='G' l_scat_type='temp' li_scat_type='caughey-thomas' hc_scat_type='sat' v_sat_type='default' bowing='' mu_l=2.33 2.33 2.33  gamma_l=-1.7 mu_min=0.0324 c_ref=3.83e+22 alpha=0.5 gamma_1=-0.33 gamma_2=-0.33 gamma_3=3.6 gamma_4=0 alpha_2=0.5 c_ref_2=0 mu_hd=0 r=0 beta=4.17 f0=0 v_sat=260000.0 a=0.57 zeta_v=0 mu_bow=0 v_sat_bow=0 v_sat_a1=0 v_sat_a2=0 mu_min_a1=0 mu_min_a2=0 mu_l_a1=0 mu_l_a2=0 force='phi'/
&MOB_DEF mod_name='InAs' valley='L' l_scat_type='temp' li_scat_type='caughey-thomas' hc_scat_type='sat' v_sat_type='default' bowing='' mu_l=0.224 0.224 0.224  gamma_l=-1.7 mu_min=0.0254 c_ref=4.87e+23 alpha=0.51 gamma_1=-0.33 gamma_2=-0.33 gamma_3=3.6 gamma_4=0 alpha_2=0.5 c_ref_2=0 mu_hd=0 r=0 beta=2.27 f0=0 v_sat=118000.0 a=0.57 zeta_v=0 mu_bow=0 v_sat_bow=0 v_sat_a1=0 v_sat_a2=0 mu_min_a1=0 mu_min_a2=0 mu_l_a1=0 mu_l_a2=0 force='phi'/
&MOB_DEF mod_name='InAs' valley='H' l_scat_type='temp' li_scat_type='caughey-thomas' hc_scat_type='sat' v_sat_type='default' bowing='' mu_l=0.051000000000000004 gamma_l=-2.3 mu_min=0.0048000000000000004 c_ref=2.55e+23 alpha=1 gamma_1=0 gamma_2=0 gamma_3=0.5 gamma_4=0 alpha_2=0 c_ref_2=0 mu_hd=0 r=0 beta=1 f0=0 v_sat=50000.0 a=0.3 zeta_v=0 mu_bow=0 v_sat_bow=0 v_sat_a1=0 v_sat_a2=0 mu_min_a1=0 mu_min_a2=0 mu_l_a1=0 mu_l_a2=0 force='phi'/
/
&RECOMB_DEF mod_name='InGaAs' type='aug' beta=0 lifetime='' e_trap=0 n_t=0 beta_n=0 beta_p=0 c_ref_n=0 c_ref_p=0 tau_n_min=0 tau_p_min=0 tau_n_max=0 tau_p_max=0 tau_n_min_a1=0 tau_n_min_a2=0 tau_p_min_a1=0 tau_p_min_a2=0 tau_n_max_a1=0 tau_n_max_a2=0 tau_p_max_a1=0 tau_p_max_a2=0 sigma_n=0 sigma_p=0 zeta_n=0 zeta_p=0 c_n=4.9999999999999994e-42 c_p=2.9999999999999996e-42 c_n_a1=0 c_n_a2=0 c_p_a1=0 c_p_a2=0 alpha_n=0 alpha_p=0 e_crit_n=0 e_crit_p=0 v_21=0/
&RECOMB_DEF mod_name='InGaAs' type='langevin' beta=6e-17 lifetime='' e_trap=0 n_t=0 beta_n=0 beta_p=0 c_ref_n=0 c_ref_p=0 tau_n_min=0 tau_p_min=0 tau_n_max=0 tau_p_max=0 tau_n_min_a1=0 tau_n_min_a2=0 tau_p_min_a1=0 tau_p_min_a2=0 tau_n_max_a1=0 tau_n_max_a2=0 tau_p_max_a1=0 tau_p_max_a2=0 sigma_n=0 sigma_p=0 zeta_n=0 zeta_p=0 c_n=0 c_p=0 c_n_a1=0 c_n_a2=0 c_p_a1=0 c_p_a2=0 alpha_n=0 alpha_p=0 e_crit_n=0 e_crit_p=0 v_21=0/
&RECOMB_DEF mod_name='InGaAs' type='avalanche' beta=0 lifetime='' e_trap=0 n_t=0 c_ref_n=0 c_ref_p=0 tau_n_min=0 tau_p_min=0 tau_n_max=0 tau_p_max=0 tau_n_min_a1=0 tau_n_min_a2=0 tau_p_min_a1=0 tau_p_min_a2=0 tau_n_max_a1=0 tau_n_max_a2=0 tau_p_max_a1=0 tau_p_max_a2=0 sigma_n=0 sigma_p=0 zeta_n=0 zeta_p=0 c_n=0 c_p=0 c_n_a1=0 c_n_a2=0 c_p_a1=0 c_p_a2=0 v_21=0 beta_n=1 beta_p=1 alpha_n=59000000.0 alpha_p=100000000.0 e_crit_n=133000000.0 e_crit_p=163000000.0/
&RECOMB_DEF mod_name='InGaAs' type='intervalley' force='phi' v_21=1689083742960.6562 dv_21=5790000000.0 b=2000000.0 a=360000000000.0 dop_crit=7.86e+23 f0=300000.0 zeta_dop=0.46 zeta_v=2.0/
&RECOMB_DEF mod_name='GaAs' type='srh' beta=0 lifetime='default' e_trap=0.4 n_t=2e+22 beta_n=1 beta_p=1 c_ref_n=0 c_ref_p=0 tau_n_min=0 tau_p_min=0 tau_n_max=0 tau_p_max=0 tau_n_min_a1=0 tau_n_min_a2=0 tau_p_min_a1=0 tau_p_min_a2=0 tau_n_max_a1=0 tau_n_max_a2=0 tau_p_max_a1=0 tau_p_max_a2=0 sigma_n=1e-18 sigma_p=1e-18 zeta_n=0 zeta_p=0 c_n=0 c_p=0 c_n_a1=0 c_n_a2=0 c_p_a1=0 c_p_a2=0 alpha_n=0 alpha_p=0 e_crit_n=0 e_crit_p=0 v_21=0/
&RECOMB_DEF mod_name='GaAs' type='aug' beta=0 lifetime='' e_trap=0 n_t=0 beta_n=0 beta_p=0 c_ref_n=0 c_ref_p=0 tau_n_min=0 tau_p_min=0 tau_n_max=0 tau_p_max=0 tau_n_min_a1=0 tau_n_min_a2=0 tau_p_min_a1=0 tau_p_min_a2=0 tau_n_max_a1=0 tau_n_max_a2=0 tau_p_max_a1=0 tau_p_max_a2=0 sigma_n=0 sigma_p=0 zeta_n=0 zeta_p=0 c_n=4.9999999999999994e-42 c_p=2.9999999999999996e-42 c_n_a1=0 c_n_a2=0 c_p_a1=0 c_p_a2=0 alpha_n=0 alpha_p=0 e_crit_n=0 e_crit_p=0 v_21=0/
&RECOMB_DEF mod_name='GaAs' type='langevin' beta=1e-16 lifetime='' e_trap=0 n_t=0 beta_n=0 beta_p=0 c_ref_n=0 c_ref_p=0 tau_n_min=0 tau_p_min=0 tau_n_max=0 tau_p_max=0 tau_n_min_a1=0 tau_n_min_a2=0 tau_p_min_a1=0 tau_p_min_a2=0 tau_n_max_a1=0 tau_n_max_a2=0 tau_p_max_a1=0 tau_p_max_a2=0 sigma_n=0 sigma_p=0 zeta_n=0 zeta_p=0 c_n=0 c_p=0 c_n_a1=0 c_n_a2=0 c_p_a1=0 c_p_a2=0 alpha_n=0 alpha_p=0 e_crit_n=0 e_crit_p=0 v_21=0/
&RECOMB_DEF mod_name='GaAs' type='avalanche' beta=0 lifetime='' e_trap=0 n_t=0 beta_n=2 beta_p=2 c_ref_n=0 c_ref_p=0 tau_n_min=0 tau_p_min=0 tau_n_max=0 tau_p_max=0 tau_n_min_a1=0 tau_n_min_a2=0 tau_p_min_a1=0 tau_p_min_a2=0 tau_n_max_a1=0 tau_n_max_a2=0 tau_p_max_a1=0 tau_p_max_a2=0 sigma_n=0 sigma_p=0 zeta_n=0 zeta_p=0 c_n=0 c_p=0 c_n_a1=0 c_n_a2=0 c_p_a1=0 c_p_a2=0 alpha_n=35000000.0 alpha_p=35000000.0 e_crit_n=68500000.0 e_crit_p=68500000.0 v_21=0/
&RECOMB_DEF mod_name='GaAs' type='intervalley' force='phi' v_21=1689083742960.6562 dv_21=5790000000.0 b=2000000.0 a=360000000000.0 dop_crit=7.86e+23 f0=300000.0 zeta_dop=0.46 zeta_v=2.0/
&RECOMB_DEF mod_name='InAs' type='srh' beta=0 lifetime='default' e_trap=0.4 n_t=2e+22 beta_n=1 beta_p=1 c_ref_n=0 c_ref_p=0 tau_n_min=0 tau_p_min=0 tau_n_max=0 tau_p_max=0 tau_n_min_a1=0 tau_n_min_a2=0 tau_p_min_a1=0 tau_p_min_a2=0 tau_n_max_a1=0 tau_n_max_a2=0 tau_p_max_a1=0 tau_p_max_a2=0 sigma_n=1e-18 sigma_p=1e-18 zeta_n=0 zeta_p=0 c_n=0 c_p=0 c_n_a1=0 c_n_a2=0 c_p_a1=0 c_p_a2=0 alpha_n=0 alpha_p=0 e_crit_n=0 e_crit_p=0 v_21=0/
&RECOMB_DEF mod_name='InAs' type='aug' beta=0 lifetime='' e_trap=0 n_t=0 beta_n=0 beta_p=0 c_ref_n=0 c_ref_p=0 tau_n_min=0 tau_p_min=0 tau_n_max=0 tau_p_max=0 tau_n_min_a1=0 tau_n_min_a2=0 tau_p_min_a1=0 tau_p_min_a2=0 tau_n_max_a1=0 tau_n_max_a2=0 tau_p_max_a1=0 tau_p_max_a2=0 sigma_n=0 sigma_p=0 zeta_n=0 zeta_p=0 c_n=4.9999999999999994e-42 c_p=2.9999999999999996e-42 c_n_a1=0 c_n_a2=0 c_p_a1=0 c_p_a2=0 alpha_n=0 alpha_p=0 e_crit_n=0 e_crit_p=0 v_21=0/
&RECOMB_DEF mod_name='InAs' type='langevin' beta=2.0999999999999996e-17 lifetime='' e_trap=0 n_t=0 beta_n=0 beta_p=0 c_ref_n=0 c_ref_p=0 tau_n_min=0 tau_p_min=0 tau_n_max=0 tau_p_max=0 tau_n_min_a1=0 tau_n_min_a2=0 tau_p_min_a1=0 tau_p_min_a2=0 tau_n_max_a1=0 tau_n_max_a2=0 tau_p_max_a1=0 tau_p_max_a2=0 sigma_n=0 sigma_p=0 zeta_n=0 zeta_p=0 c_n=0 c_p=0 c_n_a1=0 c_n_a2=0 c_p_a1=0 c_p_a2=0 alpha_n=0 alpha_p=0 e_crit_n=0 e_crit_p=0 v_21=0/
&RECOMB_DEF mod_name='InAs' type='avalanche' beta=0 lifetime='' e_trap=0 n_t=0 beta_n=0.378 beta_p=1 c_ref_n=0 c_ref_p=0 tau_n_min=0 tau_p_min=0 tau_n_max=0 tau_p_max=0 tau_n_min_a1=0 tau_n_min_a2=0 tau_p_min_a1=0 tau_p_min_a2=0 tau_n_max_a1=0 tau_n_max_a2=0 tau_p_max_a1=0 tau_p_max_a2=0 sigma_n=0 sigma_p=0 zeta_n=0 zeta_p=0 c_n=0 c_p=0 c_n_a1=0 c_n_a2=0 c_p_a1=0 c_p_a2=0 alpha_n=4620000.0 alpha_p=0 e_crit_n=13900000000.0 e_crit_p=0 v_21=0/
&RECOMB_DEF mod_name='InAs' type='intervalley' force='phi' v_21=1590000000000.0 dv_21=25000000000.0 b=2000000.0 a=320000000000.0 dop_crit=1.78e+24 f0=163000.0 zeta_dop=0.54 zeta_v=2.0/
/
&REGION_INFO spat_dim=1/
&RANGE_GRID disc_dir='x' disc_set='pnts' intv_pnts=0 5e-05  n_pnts=201/
/
&CONTACT mod_name='CONT' con_type='ohmic'/
/
&DD n_iter=500 elec=1 hole=1/
&OUTPUT name='dut' path='output'/
&BIAS_DEF zero_bias_first=1 dv_max=0.1 list=1/


&BIAS_INFO bias_fun='HDF' cont_name='C' /
&BIAS_INFO bias_fun='HDF' cont_name='A' /
&BIAS_INFO cont_name='T' bias_fun='LIN' bias_val=300.000000 300.000000 101.000000 /
