&DOPING profile='const' low_xyz=0 upp_xyz=1.05e-08 d_con=2.27e+26/
&DOPING profile='exp' low_xyz=1.05e-08 upp_xyz=1.3e-07 xyz_0=1.05e-08 d_con=2.27e+26 a_xyz=7.5e-09 b_xyz=2/
&DOPING profile='exp' low_xyz=0 upp_xyz=1.3e-07 xyz_0=3.1e-08 d_con=-6e+25 a_xyz=4.668e-09 b_xyz=2.5/
&DOPING profile='exp' low_xyz=3e-08 upp_xyz=1.3e-07 xyz_0=1.3e-07 d_con=4.5e+25 a_xyz=2.1e-08 b_xyz=1/
&DOPING profile='erfc' low_xyz=5e-08 upp_xyz=1.3e-07 xyz_0=1.3e-07 d_con=2.5e+26 a_xyz=-1.5e-08 b_xyz=0/
/
&GRADING profile='trap' c_max=0.1 low_xyz=2.17e-08 upp_xyz=4.4e-08 xyz_dlow=1e-09 xyz_dupp=1e-08 xyz_rlow=0 xyz_rupp=0/
/
&REGION_DEF reg_mat='SEMI' low_xyz=0 upp_xyz=1.3e-07 mod_name='SiGe'/
&REGION_DEF reg_mat='CONT' low_xyz=0 upp_xyz=0 mod_name='CONT' cont_name='E'/
&REGION_DEF reg_mat='CONT' low_xyz=1.3e-07 upp_xyz=1.3e-07 mod_name='CONT' cont_name='C'/
&REGION_DEF reg_mat='SUPPLY' low_xyz=3e-08 upp_xyz=3.2e-08 mod_name='BASE' cont_name='B'/
/
&REGION_INFO spat_dim=1/
&RANGE_GRID disc_dir='x' disc_set='pnts' intv_pnts=0 1.3e-07  n_pnts=1501/
&CONTACT mod_name='CONT' con_type='ohmic'/
/
&SUPPLY mod_name='BASE' supply_type='p'/
/
&DD n_iter=500 elec=1 tn=1 hole=1 simul=1 damp_method='none' damp=0.3 debug=0/
&OUTPUT name='dut' path='output' inqu_lev=2/
&BIAS_DEF zero_bias_first=1 dv_max=0.01 list=1/
&SEMI mod_name='SiGe' materialA='Si' materialB='Ge' bgn_model='classic' bgn_apparent=1 strain='sige' elec=1 elec2=0 hole=1 fermi=0 dim=3 eps=11.7 eps_c=0 bgap_gamhd=0.5 v_hd0=0.009 c_ref=1.3e+23 c_hd=0.5 bgn_alpha=0.00143 eoff_c=0 temp0=300/
&SEMI mod_name='Si' materialA='' materialB='' bgn_model='classic' bgn_apparent=1 elec=1 elec2=0 hole=1 fermi=0 dim=3 eps=11.7 eps_c=0 bgap_gamhd=0.5 v_hd0=0.009 c_ref=1.3e+23 c_hd=0.5 bgn_alpha=0.00143 eoff=-0.562 eoff_c=0 temp0=300/
&SEMI mod_name='Ge' materialA='' materialB='' bgn_model='default' bgn_apparent=1 elec=1 elec2=0 hole=1 fermi=0 dim=3 eps=16 eps_c=0 bgap_gamhd=0.5 v_hd0=0 c_ref=0 c_hd=0 bgn_alpha=0 eoff=0.148 eoff_c=0 temp0=300/
/
&BAND_DEF mod_name='SiGe' valley='x' band='cb' type='para' e0=0.5 e0_c=0.4 deg=1 e0_alpha=0 e0_beta=0 m_eff=0 m_eff_c=-0.183 al=0/
&BAND_DEF mod_name='SiGe' valley='h' band='vb' type='para' e0=-0.5 e0_c=0.4 deg=1 e0_alpha=0 e0_beta=0 m_eff=0 m_eff_c=0.096 al=0/
&BAND_DEF mod_name='Si' valley='x' band='cb' type='para' e0=0.58475 e0_c=0 deg=6 e0_alpha=0.000473 e0_beta=636 m_eff=0.36 m_eff_c=0 al=0/
&BAND_DEF mod_name='Si' valley='h' band='vb' type='para' e0=-0.58475 e0_c=0 deg=1 e0_alpha=0 e0_beta=0 m_eff=0.81 m_eff_c=0 al=0/
&BAND_DEF mod_name='Ge' valley='x' band='cb' type='para' e0=0.335 e0_c=0 deg=4 e0_alpha=0.0004774 e0_beta=235 m_eff=0.22 m_eff_c=0 al=0/
&BAND_DEF mod_name='Ge' valley='h' band='vb' type='para' e0=-0.335 e0_c=0 deg=1 e0_alpha=0 e0_beta=0 m_eff=0.28 m_eff_c=0 al=0/
/
&TAU_E mod_name='SiGe' valley='x' tau_type='michaillat' t0=3.8e-13 t1=4e-14 c0=0.1/
&TAU_E mod_name='Si' valley='x' tau_type='default' t0=1e-12 t1=-5.38e-13 c0=0 c1=0.0015 c2=-0.09 c3=0.17/
&TAU_E mod_name='Ge' valley='x' tau_type='default' t0=2.6e-13 t1=1.49e-12 c0=0 c1=-0.434 c2=1.322 c3=0/
/
&MOB_DEF mod_name='SiGe' valley='x' l_scat_type='michaillatn' li_scat_type='reggiani' hc_scat_type='sat' force='mix' v_sat_type='default' bowing='michaillat' mu_l=0 gamma_l=0 mu_min=0 c_ref=0 alpha=0 gamma_1=0 gamma_2=0 gamma_3=0 gamma_4=0 alpha_2=0 c_ref_2=0 mu_hd=0 r=0 beta=2 f0=0 v_sat=0 a=0 zeta_v=0 mu_bow=0.012 mu_bow1=0 mu_bow2=0 mu_bowy=0.00030000000000000003 mu_bowxy=0.00030000000000000003 chi=1.0 2.2 2.7 1.3  z_1=0.01 v_sat_bow=228000.0 v_sat_a1=0 v_sat_a2=0 mu_min_a1=0 mu_min_a2=0 mu_l_a1=0 mu_l_a2=0/
&MOB_DEF mod_name='SiGe' valley='H' l_scat_type='michaillatp' li_scat_type='reggiani' hc_scat_type='sat' force='mix' v_sat_type='default' bowing='michaillat' mu_l=0 gamma_l=0 mu_min=0 c_ref=0 alpha=0 gamma_1=0 gamma_2=0 gamma_3=0 gamma_4=0 alpha_2=0 c_ref_2=0 mu_hd=0 r=0 beta=1 f0=0 v_sat=0 a=0 zeta_v=0 mu_bow=0.006 mu_bow1=0.007 mu_bow2=0.017 mu_bowy=0.00034 mu_bowxy=0.00030000000000000003 chi=3.2 2.1 2.1 2.1  z_1=0.05 v_sat_bow=228000.0 v_sat_a1=0 v_sat_a2=0 mu_min_a1=0 mu_min_a2=0 mu_l_a1=0 mu_l_a2=0/
&MOB_DEF mod_name='Si' valley='X' l_scat_type='michaillatn' li_scat_type='reggiani' hc_scat_type='sat' v_sat_type='default' bowing='' mu_l=0.07 0.3  mu_cs=0.23 0.14  z_0=1e-09 0.09  beta_l=400 300  gamma_l=-2.4 mu_min_d=0.00685 c_ref_d=9.2e+22 alpha_d=0.75 mu_min_a=0.024 c_ref_a=9e+22 alpha_a=0.78 gamma_1=0 gamma_2=0 gamma_3=0 gamma_4=0 alpha_2=0 c_ref_2=0 mu_hd=0 r=0 beta=2 f0=0 v_sat=100000.0 a=0.26 zeta_v=0 v_sat_bow=0 v_sat_a1=0 v_sat_a2=0 mu_min_a1=0 mu_min_a2=0 mu_l_a1=0 mu_l_a2=0 force='mix'/
&MOB_DEF mod_name='Si' valley='H' l_scat_type='michaillatp' li_scat_type='reggiani' hc_scat_type='sat' v_sat_type='default' bowing='' mu_l=0.051000000000000004 0.051000000000000004  z_0=0.0015 0.001  gamma_l=-2.2 mu_min_a=0.004200000000000001 mu_min_d=0.010400000000000001 c_ref_a=3e+23 c_ref_d=3e+23 alpha_a=0.7 alpha_d=0.7 gamma_1=0 gamma_2=0 gamma_3=0 gamma_4=0 alpha_2=0 c_ref_2=0 mu_hd=0 r=0 beta=1 f0=0 v_sat=114000.0 a=0.63 zeta_v=0 mu_bow=0 v_sat_bow=0 v_sat_a1=0 v_sat_a2=0 mu_min_a1=0 mu_min_a2=0 mu_l_a1=0 mu_l_a2=0 force='mix'/
&MOB_DEF mod_name='Ge' valley='X' l_scat_type='temp' li_scat_type='reggiani' hc_scat_type='sat' v_sat_type='default' bowing='' mu_l=0.35000000000000003 gamma_l=-1.6 mu_min_a=0.045000000000000005 mu_min_d=0.01 c_ref_a=1e+23 c_ref_d=6e+22 alpha_a=0.8 gamma_1=0 gamma_2=0 gamma_3=3.2 gamma_4=0 alpha_2=0 c_ref_2=0 mu_hd=0 r=0 beta=2 f0=0 v_sat=70000.0 a=0.55 zeta_v=0 mu_bow=0 v_sat_bow=0 v_sat_a1=0 v_sat_a2=0 mu_min_a1=0 mu_min_a2=0 mu_l_a1=0 mu_l_a2=0 force='mix'/
&MOB_DEF mod_name='Ge' valley='H' l_scat_type='temp' li_scat_type='reggiani' hc_scat_type='sat' v_sat_type='default' bowing='' mu_l=0.18000000000000002 gamma_l=-2.3 mu_min_a=0.004200000000000001 mu_min_d=0.0134 c_ref_a=9e+22 c_ref_d=9e+22 alpha_a=0.65 alpha_d=0.6 gamma_1=0 gamma_2=0 gamma_3=0 gamma_4=0 alpha_2=0 c_ref_2=0 mu_hd=0 r=0 beta=1 f0=0 v_sat=63000.0 a=0.61 zeta_v=0 mu_bow=0 v_sat_bow=0 v_sat_a1=0 v_sat_a2=0 mu_min_a1=0 mu_min_a2=0 mu_l_a1=0 mu_l_a2=0 force='mix'/
/
&STRAIN a1=1 a2=-0.1071 a3=-0.0163/
&POISSON init_psi='buildin' atol=1e-09/
&CONT_ELEC atol=1e-09/
&CONT_HOLE atol=1e-09/


&BIAS_INFO bias_fun='HDF' cont_name='C' /
&BIAS_INFO bias_fun='HDF' cont_name='B' /
&BIAS_INFO bias_fun='HDF' cont_name='E' /
&AC_INFO port1='B' port2='C' sweep_type='TAB' freq_val=1000.0 /
&BIAS_INFO cont_name='T' bias_fun='LIN' bias_val=300.000000 300.000000 101.000000 /
